09/18/2018 13:08:19: Error_ApiConexiones.Post: Se excedió el tiempo de espera de la operación.
   en System.Net.HttpWebRequest.GetResponse()
   en GrupoGitLib.Model.DataAccess.ApiConexiones.Post[T](String url, Int32 timeOutCnx, String json, String token).
URL: http://pbasworkbycloudds.bepensa.com:83/IntegracionesAPI/api/OrdenCCTH/Productos
09/18/2018 13:09:28: Error_ApiConexiones.Post: Se excedió el tiempo de espera de la operación.
   en System.Net.HttpWebRequest.GetResponse()
   en GrupoGitLib.Model.DataAccess.ApiConexiones.Post[T](String url, Int32 timeOutCnx, String json, String token).
URL: http://pbasworkbycloudds.bepensa.com:83/IntegracionesAPI/api/OrdenCCTH/Productos
09/18/2018 15:28:02: Error_ApiConexiones.Post: Se excedió el tiempo de espera de la operación.
   en System.Net.HttpWebRequest.GetResponse()
   en GrupoGitLib.Model.DataAccess.ApiConexiones.Post[T](String url, Int32 timeOutCnx, String json, String token).
URL: http://pbasworkbycloudds.bepensa.com:83/IntegracionesAPI/api/OrdenCCTH/Productos
