10/30/2018 19:22:25: Error_ApiConexiones.Post: Se excedió el tiempo de espera de la operación.
   en System.Net.HttpWebRequest.GetResponse()
   en GrupoGitLib.Model.DataAccess.ApiConexiones.Post[T](String url, Int32 timeOutCnx, String json, String token, String clientId, String clienteSecret).
URL: http://localhost:82/api/OrdenCCTH/Productos
