11/06/2018 09:58:05: Error_ApiConexiones.Post: No es posible conectar con el servidor remoto.
   en System.Net.HttpWebRequest.GetRequestStream(TransportContext& context)
   en System.Net.HttpWebRequest.GetRequestStream()
   en GrupoGitLib.Model.DataAccess.ApiConexiones.Post[T](String url, Int32 timeOutCnx, String json, String token, String clientId, String clienteSecret).
URL: http://192.168.1.71:82/api/OrdenCCTH/Productos
11/06/2018 09:59:34: Error_ApiConexiones.Get: No es posible conectar con el servidor remoto.
   en System.Net.HttpWebRequest.GetResponse()
   en GrupoGitLib.Model.DataAccess.ApiConexiones.Get[T](String url, Int32 timeOutCnx, String token, String clientId, String clienteSecret).
URL: http://192.168.1.71:82/api/OrdenWBC/CedisInfo
11/06/2018 10:10:50: Error_ApiConexiones.Post: No se puede resolver el nombre remoto: 'api.testcoke.com'.
   en System.Net.HttpWebRequest.GetResponse()
   en GrupoGitLib.Model.DataAccess.ApiConexiones.Post[T](String url, Int32 timeOutCnx, String json, String token, String clientId, String clienteSecret).
URL: https://api.testcoke.com/lag/salesorder/v1/rest/V1/integration/admin/token?username=bepensa&password=B3p3ns4$
11/06/2018 18:13:46: Error_ApiConexiones.Get: No es posible conectar con el servidor remoto.
   en System.Net.HttpWebRequest.GetResponse()
   en GrupoGitLib.Model.DataAccess.ApiConexiones.Get[T](String url, Int32 timeOutCnx, String token, String clientId, String clienteSecret).
URL: http://pbasworkbycloudds.bepensa.com:83/IntegracionesAPI/api/OrdenOpeCd/GetOrders?Status=5&cedis=13&ruta=110&deliveryDate=2018-11-06
