10/05/2018 14:37:17: Error_ApiConexiones.Post: Unexpected character encountered while parsing value: [. Path '', line 1, position 1..
   en Newtonsoft.Json.JsonTextReader.ReadStringValue(ReadType readType)
   en Newtonsoft.Json.JsonTextReader.ReadAsString()
   en Newtonsoft.Json.Serialization.JsonSerializerInternalReader.ReadForType(JsonReader reader, JsonContract contract, Boolean hasConverter)
   en Newtonsoft.Json.Serialization.JsonSerializerInternalReader.Deserialize(JsonReader reader, Type objectType, Boolean checkAdditionalContent)
   en Newtonsoft.Json.JsonSerializer.DeserializeInternal(JsonReader reader, Type objectType)
   en Newtonsoft.Json.JsonConvert.DeserializeObject(String value, Type type, JsonSerializerSettings settings)
   en Newtonsoft.Json.JsonConvert.DeserializeObject[T](String value, JsonSerializerSettings settings)
   en Newtonsoft.Json.JsonConvert.DeserializeObject[T](String value)
   en GrupoGitLib.Model.DataAccess.ApiConexiones.Post[T](String url, Int32 timeOutCnx, String json, String token, String clientId, String clienteSecret).
URL: http://localhost:82/api/OrdenCCTH/Productos
10/05/2018 16:36:57: Error_ApiConexiones.Post: Unexpected character encountered while parsing value: [. Path '', line 1, position 1..
   en Newtonsoft.Json.JsonTextReader.ReadStringValue(ReadType readType)
   en Newtonsoft.Json.JsonTextReader.ReadAsString()
   en Newtonsoft.Json.Serialization.JsonSerializerInternalReader.ReadForType(JsonReader reader, JsonContract contract, Boolean hasConverter)
   en Newtonsoft.Json.Serialization.JsonSerializerInternalReader.Deserialize(JsonReader reader, Type objectType, Boolean checkAdditionalContent)
   en Newtonsoft.Json.JsonSerializer.DeserializeInternal(JsonReader reader, Type objectType)
   en Newtonsoft.Json.JsonConvert.DeserializeObject(String value, Type type, JsonSerializerSettings settings)
   en Newtonsoft.Json.JsonConvert.DeserializeObject[T](String value, JsonSerializerSettings settings)
   en Newtonsoft.Json.JsonConvert.DeserializeObject[T](String value)
   en GrupoGitLib.Model.DataAccess.ApiConexiones.Post[T](String url, Int32 timeOutCnx, String json, String token, String clientId, String clienteSecret).
URL: http://localhost:82/api/OrdenCCTH/Productos
10/05/2018 16:37:48: Error_ApiConexiones.Post: Unexpected character encountered while parsing value: [. Path '', line 1, position 1..
   en Newtonsoft.Json.JsonTextReader.ReadStringValue(ReadType readType)
   en Newtonsoft.Json.JsonTextReader.ReadAsString()
   en Newtonsoft.Json.Serialization.JsonSerializerInternalReader.ReadForType(JsonReader reader, JsonContract contract, Boolean hasConverter)
   en Newtonsoft.Json.Serialization.JsonSerializerInternalReader.Deserialize(JsonReader reader, Type objectType, Boolean checkAdditionalContent)
   en Newtonsoft.Json.JsonSerializer.DeserializeInternal(JsonReader reader, Type objectType)
   en Newtonsoft.Json.JsonConvert.DeserializeObject(String value, Type type, JsonSerializerSettings settings)
   en Newtonsoft.Json.JsonConvert.DeserializeObject[T](String value, JsonSerializerSettings settings)
   en Newtonsoft.Json.JsonConvert.DeserializeObject[T](String value)
   en GrupoGitLib.Model.DataAccess.ApiConexiones.Post[T](String url, Int32 timeOutCnx, String json, String token, String clientId, String clienteSecret).
URL: http://localhost:82/api/OrdenCCTH/Productos
