02/06/2019 17:07:00: Error_ApiConexiones.Get: Error en el servidor remoto: (404) No se encontró..
   en System.Net.HttpWebRequest.GetResponse()
   en GrupoGitLib.Model.DataAccess.ApiConexiones.Get[T](String url, Int32 timeOutCnx, String token).
URL: http://10.20.128.26:813/IntegracionesAPI/api/jornadasFinalizadas?cedisId=97&routeId=471&deliveryDate=2019-02-06
02/06/2019 17:08:03: Error_ApiConexiones.Get: Error en el servidor remoto: (404) No se encontró..
   en System.Net.HttpWebRequest.GetResponse()
   en GrupoGitLib.Model.DataAccess.ApiConexiones.Get[T](String url, Int32 timeOutCnx, String token).
URL: http://10.20.128.26:813/IntegracionesAPI//api/jornadasFinalizadas?cedisId=97&routeId=471&deliveryDate=2019-02-06
