02/01/2019 17:56:53: Error_ApiConexiones.Get: No es posible conectar con el servidor remoto.
   en System.Net.HttpWebRequest.GetResponse()
   en GrupoGitLib.Model.DataAccess.ApiConexiones.Get[T](String url, Int32 timeOutCnx, String token).
URL: http://localhost:813/api/jornadasFinalizadas?cedisId=97&routeId=487&deliveryDate=2019-02-01
02/01/2019 17:57:51: Error_ApiConexiones.Get: Error en el servidor remoto: (404) No se encontró..
   en System.Net.HttpWebRequest.GetResponse()
   en GrupoGitLib.Model.DataAccess.ApiConexiones.Get[T](String url, Int32 timeOutCnx, String token).
URL: http://10.20.128.26:813/IntegracionesAPI/api/jornadasFinalizadas?cedisId=97&routeId=487&deliveryDate=2019-02-01
