10/17/2018 14:27:27: Error_ApiConexiones.Post: Se excedió el tiempo de espera de la operación.
   en System.Net.HttpWebRequest.GetResponse()
   en GrupoGitLib.Model.DataAccess.ApiConexiones.Post[T](String url, Int32 timeOutCnx, String json, String token).
URL: http://localhost:81/api/OrderGeneral?cedisId=97
10/17/2018 16:47:16: Error_ApiConexiones.Put: Error en el servidor remoto: (500) Error interno del servidor..
   en System.Net.HttpWebRequest.GetResponse()
   en GrupoGitLib.Model.DataAccess.ApiConexiones.Put[T](String url, Int32 timeOutCnx, String json, String token).
URL: http://localhost:82/api/OrdenOpeCd/PutOrder/1
