06/26/2019 11:32:19: Error_ApiConexiones.Get: Error en el servidor remoto: (404) No se encontró..
   en System.Net.HttpWebRequest.GetResponse()
   en GrupoGitLib.Model.DataAccess.ApiConexiones.Get[T](String url, Int32 timeOutCnx, String token).
URL: http://10.20.128.26:813//api/OrdenOpeCd/GetConfigAuto/97
06/26/2019 11:33:26: Error_ApiConexiones.Get: Error en el servidor remoto: (404) No se encontró..
   en System.Net.HttpWebRequest.GetResponse()
   en GrupoGitLib.Model.DataAccess.ApiConexiones.Get[T](String url, Int32 timeOutCnx, String token).
URL: http://10.20.128.26:813/api/OrdenOpeCd/GetConfigAuto/97
06/26/2019 12:03:18: Error_ApiConexiones.Get: Error en el servidor remoto: (404) No se encontró..
   en System.Net.HttpWebRequest.GetResponse()
   en GrupoGitLib.Model.DataAccess.ApiConexiones.Get[T](String url, Int32 timeOutCnx, String token).
URL: http://10.20.128.26:813//api/OrdenOpeCd/GetConfigAuto?cedi=97&route=470
06/26/2019 12:04:25: Error_ApiConexiones.Get: Error en el servidor remoto: (404) No se encontró..
   en System.Net.HttpWebRequest.GetResponse()
   en GrupoGitLib.Model.DataAccess.ApiConexiones.Get[T](String url, Int32 timeOutCnx, String token).
URL: http://10.20.128.26:813/api/OrdenOpeCd/GetConfigAuto?cedi=97&route=470
06/26/2019 12:05:22: Error_ApiConexiones.Get: Error en el servidor remoto: (404) No se encontró..
   en System.Net.HttpWebRequest.GetResponse()
   en GrupoGitLib.Model.DataAccess.ApiConexiones.Get[T](String url, Int32 timeOutCnx, String token).
URL: http://10.20.128.26:813/api/OrdenOpeCd/GetConfigAuto?cedi=97&route=470
06/26/2019 12:06:31: Error_ApiConexiones.Get: Error en el servidor remoto: (404) No se encontró..
   en System.Net.HttpWebRequest.GetResponse()
   en GrupoGitLib.Model.DataAccess.ApiConexiones.Get[T](String url, Int32 timeOutCnx, String token).
URL: http://10.20.128.26:813/api/OrdenOpeCd/GetConfigAuto?cedi=97&route=470
06/26/2019 12:06:31: Error_ApiConexiones.Get: Error en el servidor remoto: (404) No se encontró..
   en System.Net.HttpWebRequest.GetResponse()
   en GrupoGitLib.Model.DataAccess.ApiConexiones.Get[T](String url, Int32 timeOutCnx, String token).
URL: http://10.20.128.26:813/api/OrdenOpeCd/GetConfigAuto?cedi=97&route=519
06/26/2019 12:06:31: Error_ApiConexiones.Get: Error en el servidor remoto: (404) No se encontró..
   en System.Net.HttpWebRequest.GetResponse()
   en GrupoGitLib.Model.DataAccess.ApiConexiones.Get[T](String url, Int32 timeOutCnx, String token).
URL: http://10.20.128.26:813/api/OrdenOpeCd/GetConfigAuto?cedi=97&route=477
06/26/2019 12:06:31: Error_ApiConexiones.Get: Error en el servidor remoto: (404) No se encontró..
   en System.Net.HttpWebRequest.GetResponse()
   en GrupoGitLib.Model.DataAccess.ApiConexiones.Get[T](String url, Int32 timeOutCnx, String token).
URL: http://10.20.128.26:813/api/OrdenOpeCd/GetConfigAuto?cedi=97&route=472
06/26/2019 12:06:32: Error_ApiConexiones.Get: Error en el servidor remoto: (404) No se encontró..
   en System.Net.HttpWebRequest.GetResponse()
   en GrupoGitLib.Model.DataAccess.ApiConexiones.Get[T](String url, Int32 timeOutCnx, String token).
URL: http://10.20.128.26:813/api/OrdenOpeCd/GetConfigAuto?cedi=97&route=473
06/26/2019 12:06:32: Error_ApiConexiones.Get: Error en el servidor remoto: (404) No se encontró..
   en System.Net.HttpWebRequest.GetResponse()
   en GrupoGitLib.Model.DataAccess.ApiConexiones.Get[T](String url, Int32 timeOutCnx, String token).
URL: http://10.20.128.26:813/api/OrdenOpeCd/GetConfigAuto?cedi=97&route=479
06/26/2019 12:06:32: Error_ApiConexiones.Get: Error en el servidor remoto: (404) No se encontró..
   en System.Net.HttpWebRequest.GetResponse()
   en GrupoGitLib.Model.DataAccess.ApiConexiones.Get[T](String url, Int32 timeOutCnx, String token).
URL: http://10.20.128.26:813/api/OrdenOpeCd/GetConfigAuto?cedi=97&route=459
06/26/2019 12:06:32: Error_ApiConexiones.Get: Error en el servidor remoto: (404) No se encontró..
   en System.Net.HttpWebRequest.GetResponse()
   en GrupoGitLib.Model.DataAccess.ApiConexiones.Get[T](String url, Int32 timeOutCnx, String token).
URL: http://10.20.128.26:813/api/OrdenOpeCd/GetConfigAuto?cedi=97&route=481
06/26/2019 12:06:32: Error_ApiConexiones.Get: Error en el servidor remoto: (404) No se encontró..
   en System.Net.HttpWebRequest.GetResponse()
   en GrupoGitLib.Model.DataAccess.ApiConexiones.Get[T](String url, Int32 timeOutCnx, String token).
URL: http://10.20.128.26:813/api/OrdenOpeCd/GetConfigAuto?cedi=97&route=489
06/26/2019 12:06:32: Error_ApiConexiones.Get: Error en el servidor remoto: (404) No se encontró..
   en System.Net.HttpWebRequest.GetResponse()
   en GrupoGitLib.Model.DataAccess.ApiConexiones.Get[T](String url, Int32 timeOutCnx, String token).
URL: http://10.20.128.26:813/api/OrdenOpeCd/GetConfigAuto?cedi=97&route=450
06/26/2019 12:06:32: Error_ApiConexiones.Get: Error en el servidor remoto: (404) No se encontró..
   en System.Net.HttpWebRequest.GetResponse()
   en GrupoGitLib.Model.DataAccess.ApiConexiones.Get[T](String url, Int32 timeOutCnx, String token).
URL: http://10.20.128.26:813/api/OrdenOpeCd/GetConfigAuto?cedi=97&route=490
06/26/2019 12:06:32: Error_ApiConexiones.Get: Error en el servidor remoto: (404) No se encontró..
   en System.Net.HttpWebRequest.GetResponse()
   en GrupoGitLib.Model.DataAccess.ApiConexiones.Get[T](String url, Int32 timeOutCnx, String token).
URL: http://10.20.128.26:813/api/OrdenOpeCd/GetConfigAuto?cedi=97&route=463
06/26/2019 12:06:33: Error_ApiConexiones.Get: Error en el servidor remoto: (404) No se encontró..
   en System.Net.HttpWebRequest.GetResponse()
   en GrupoGitLib.Model.DataAccess.ApiConexiones.Get[T](String url, Int32 timeOutCnx, String token).
URL: http://10.20.128.26:813/api/OrdenOpeCd/GetConfigAuto?cedi=97&route=454
06/26/2019 12:06:33: Error_ApiConexiones.Get: Error en el servidor remoto: (404) No se encontró..
   en System.Net.HttpWebRequest.GetResponse()
   en GrupoGitLib.Model.DataAccess.ApiConexiones.Get[T](String url, Int32 timeOutCnx, String token).
URL: http://10.20.128.26:813/api/OrdenOpeCd/GetConfigAuto?cedi=97&route=480
06/26/2019 12:06:33: Error_ApiConexiones.Get: Error en el servidor remoto: (404) No se encontró..
   en System.Net.HttpWebRequest.GetResponse()
   en GrupoGitLib.Model.DataAccess.ApiConexiones.Get[T](String url, Int32 timeOutCnx, String token).
URL: http://10.20.128.26:813/api/OrdenOpeCd/GetConfigAuto?cedi=97&route=497
06/26/2019 12:06:33: Error_ApiConexiones.Get: Error en el servidor remoto: (404) No se encontró..
   en System.Net.HttpWebRequest.GetResponse()
   en GrupoGitLib.Model.DataAccess.ApiConexiones.Get[T](String url, Int32 timeOutCnx, String token).
URL: http://10.20.128.26:813/api/OrdenOpeCd/GetConfigAuto?cedi=97&route=501
06/26/2019 12:06:33: Error_ApiConexiones.Get: Error en el servidor remoto: (404) No se encontró..
   en System.Net.HttpWebRequest.GetResponse()
   en GrupoGitLib.Model.DataAccess.ApiConexiones.Get[T](String url, Int32 timeOutCnx, String token).
URL: http://10.20.128.26:813/api/OrdenOpeCd/GetConfigAuto?cedi=97&route=535
06/26/2019 12:06:33: Error_ApiConexiones.Get: Error en el servidor remoto: (404) No se encontró..
   en System.Net.HttpWebRequest.GetResponse()
   en GrupoGitLib.Model.DataAccess.ApiConexiones.Get[T](String url, Int32 timeOutCnx, String token).
URL: http://10.20.128.26:813/api/OrdenOpeCd/GetConfigAuto?cedi=97&route=536
06/26/2019 12:06:33: Error_ApiConexiones.Get: Error en el servidor remoto: (404) No se encontró..
   en System.Net.HttpWebRequest.GetResponse()
   en GrupoGitLib.Model.DataAccess.ApiConexiones.Get[T](String url, Int32 timeOutCnx, String token).
URL: http://10.20.128.26:813/api/OrdenOpeCd/GetConfigAuto?cedi=97&route=453
06/26/2019 12:06:33: Error_ApiConexiones.Get: Error en el servidor remoto: (404) No se encontró..
   en System.Net.HttpWebRequest.GetResponse()
   en GrupoGitLib.Model.DataAccess.ApiConexiones.Get[T](String url, Int32 timeOutCnx, String token).
URL: http://10.20.128.26:813/api/OrdenOpeCd/GetConfigAuto?cedi=97&route=464
06/26/2019 12:06:34: Error_ApiConexiones.Get: Error en el servidor remoto: (404) No se encontró..
   en System.Net.HttpWebRequest.GetResponse()
   en GrupoGitLib.Model.DataAccess.ApiConexiones.Get[T](String url, Int32 timeOutCnx, String token).
URL: http://10.20.128.26:813/api/OrdenOpeCd/GetConfigAuto?cedi=97&route=494
06/26/2019 12:06:34: Error_ApiConexiones.Get: Error en el servidor remoto: (404) No se encontró..
   en System.Net.HttpWebRequest.GetResponse()
   en GrupoGitLib.Model.DataAccess.ApiConexiones.Get[T](String url, Int32 timeOutCnx, String token).
URL: http://10.20.128.26:813/api/OrdenOpeCd/GetConfigAuto?cedi=97&route=496
06/26/2019 12:06:34: Error_ApiConexiones.Get: Error en el servidor remoto: (404) No se encontró..
   en System.Net.HttpWebRequest.GetResponse()
   en GrupoGitLib.Model.DataAccess.ApiConexiones.Get[T](String url, Int32 timeOutCnx, String token).
URL: http://10.20.128.26:813/api/OrdenOpeCd/GetConfigAuto?cedi=97&route=466
06/26/2019 12:06:34: Error_ApiConexiones.Get: Error en el servidor remoto: (404) No se encontró..
   en System.Net.HttpWebRequest.GetResponse()
   en GrupoGitLib.Model.DataAccess.ApiConexiones.Get[T](String url, Int32 timeOutCnx, String token).
URL: http://10.20.128.26:813/api/OrdenOpeCd/GetConfigAuto?cedi=97&route=499
06/26/2019 12:06:34: Error_ApiConexiones.Get: Error en el servidor remoto: (404) No se encontró..
   en System.Net.HttpWebRequest.GetResponse()
   en GrupoGitLib.Model.DataAccess.ApiConexiones.Get[T](String url, Int32 timeOutCnx, String token).
URL: http://10.20.128.26:813/api/OrdenOpeCd/GetConfigAuto?cedi=97&route=475
06/26/2019 12:06:34: Error_ApiConexiones.Get: Error en el servidor remoto: (404) No se encontró..
   en System.Net.HttpWebRequest.GetResponse()
   en GrupoGitLib.Model.DataAccess.ApiConexiones.Get[T](String url, Int32 timeOutCnx, String token).
URL: http://10.20.128.26:813/api/OrdenOpeCd/GetConfigAuto?cedi=97&route=461
06/26/2019 12:06:34: Error_ApiConexiones.Get: Error en el servidor remoto: (404) No se encontró..
   en System.Net.HttpWebRequest.GetResponse()
   en GrupoGitLib.Model.DataAccess.ApiConexiones.Get[T](String url, Int32 timeOutCnx, String token).
URL: http://10.20.128.26:813/api/OrdenOpeCd/GetConfigAuto?cedi=97&route=471
06/26/2019 12:06:35: Error_ApiConexiones.Get: Error en el servidor remoto: (404) No se encontró..
   en System.Net.HttpWebRequest.GetResponse()
   en GrupoGitLib.Model.DataAccess.ApiConexiones.Get[T](String url, Int32 timeOutCnx, String token).
URL: http://10.20.128.26:813/api/OrdenOpeCd/GetConfigAuto?cedi=97&route=451
06/26/2019 12:06:35: Error_ApiConexiones.Get: Error en el servidor remoto: (404) No se encontró..
   en System.Net.HttpWebRequest.GetResponse()
   en GrupoGitLib.Model.DataAccess.ApiConexiones.Get[T](String url, Int32 timeOutCnx, String token).
URL: http://10.20.128.26:813/api/OrdenOpeCd/GetConfigAuto?cedi=97&route=452
06/26/2019 12:06:35: Error_ApiConexiones.Get: Error en el servidor remoto: (404) No se encontró..
   en System.Net.HttpWebRequest.GetResponse()
   en GrupoGitLib.Model.DataAccess.ApiConexiones.Get[T](String url, Int32 timeOutCnx, String token).
URL: http://10.20.128.26:813/api/OrdenOpeCd/GetConfigAuto?cedi=97&route=469
06/26/2019 12:06:35: Error_ApiConexiones.Get: Error en el servidor remoto: (404) No se encontró..
   en System.Net.HttpWebRequest.GetResponse()
   en GrupoGitLib.Model.DataAccess.ApiConexiones.Get[T](String url, Int32 timeOutCnx, String token).
URL: http://10.20.128.26:813/api/OrdenOpeCd/GetConfigAuto?cedi=97&route=505
06/26/2019 12:06:35: Error_ApiConexiones.Get: Error en el servidor remoto: (404) No se encontró..
   en System.Net.HttpWebRequest.GetResponse()
   en GrupoGitLib.Model.DataAccess.ApiConexiones.Get[T](String url, Int32 timeOutCnx, String token).
URL: http://10.20.128.26:813/api/OrdenOpeCd/GetConfigAuto?cedi=97&route=508
06/26/2019 12:06:35: Error_ApiConexiones.Get: Error en el servidor remoto: (404) No se encontró..
   en System.Net.HttpWebRequest.GetResponse()
   en GrupoGitLib.Model.DataAccess.ApiConexiones.Get[T](String url, Int32 timeOutCnx, String token).
URL: http://10.20.128.26:813/api/OrdenOpeCd/GetConfigAuto?cedi=97&route=509
06/26/2019 12:06:35: Error_ApiConexiones.Get: Error en el servidor remoto: (404) No se encontró..
   en System.Net.HttpWebRequest.GetResponse()
   en GrupoGitLib.Model.DataAccess.ApiConexiones.Get[T](String url, Int32 timeOutCnx, String token).
URL: http://10.20.128.26:813/api/OrdenOpeCd/GetConfigAuto?cedi=97&route=476
06/26/2019 12:06:36: Error_ApiConexiones.Get: Error en el servidor remoto: (404) No se encontró..
   en System.Net.HttpWebRequest.GetResponse()
   en GrupoGitLib.Model.DataAccess.ApiConexiones.Get[T](String url, Int32 timeOutCnx, String token).
URL: http://10.20.128.26:813/api/OrdenOpeCd/GetConfigAuto?cedi=97&route=457
06/26/2019 12:06:36: Error_ApiConexiones.Get: Error en el servidor remoto: (404) No se encontró..
   en System.Net.HttpWebRequest.GetResponse()
   en GrupoGitLib.Model.DataAccess.ApiConexiones.Get[T](String url, Int32 timeOutCnx, String token).
URL: http://10.20.128.26:813/api/OrdenOpeCd/GetConfigAuto?cedi=97&route=503
06/26/2019 12:06:36: Error_ApiConexiones.Get: Error en el servidor remoto: (404) No se encontró..
   en System.Net.HttpWebRequest.GetResponse()
   en GrupoGitLib.Model.DataAccess.ApiConexiones.Get[T](String url, Int32 timeOutCnx, String token).
URL: http://10.20.128.26:813/api/OrdenOpeCd/GetConfigAuto?cedi=97&route=511
06/26/2019 12:06:36: Error_ApiConexiones.Get: Error en el servidor remoto: (404) No se encontró..
   en System.Net.HttpWebRequest.GetResponse()
   en GrupoGitLib.Model.DataAccess.ApiConexiones.Get[T](String url, Int32 timeOutCnx, String token).
URL: http://10.20.128.26:813/api/OrdenOpeCd/GetConfigAuto?cedi=97&route=504
06/26/2019 12:06:36: Error_ApiConexiones.Get: Error en el servidor remoto: (404) No se encontró..
   en System.Net.HttpWebRequest.GetResponse()
   en GrupoGitLib.Model.DataAccess.ApiConexiones.Get[T](String url, Int32 timeOutCnx, String token).
URL: http://10.20.128.26:813/api/OrdenOpeCd/GetConfigAuto?cedi=97&route=538
06/26/2019 12:06:36: Error_ApiConexiones.Get: Error en el servidor remoto: (404) No se encontró..
   en System.Net.HttpWebRequest.GetResponse()
   en GrupoGitLib.Model.DataAccess.ApiConexiones.Get[T](String url, Int32 timeOutCnx, String token).
URL: http://10.20.128.26:813/api/OrdenOpeCd/GetConfigAuto?cedi=97&route=455
06/26/2019 12:06:36: Error_ApiConexiones.Get: Error en el servidor remoto: (404) No se encontró..
   en System.Net.HttpWebRequest.GetResponse()
   en GrupoGitLib.Model.DataAccess.ApiConexiones.Get[T](String url, Int32 timeOutCnx, String token).
URL: http://10.20.128.26:813/api/OrdenOpeCd/GetConfigAuto?cedi=97&route=462
06/26/2019 12:06:36: Error_ApiConexiones.Get: Error en el servidor remoto: (404) No se encontró..
   en System.Net.HttpWebRequest.GetResponse()
   en GrupoGitLib.Model.DataAccess.ApiConexiones.Get[T](String url, Int32 timeOutCnx, String token).
URL: http://10.20.128.26:813/api/OrdenOpeCd/GetConfigAuto?cedi=97&route=465
06/26/2019 12:06:37: Error_ApiConexiones.Get: Error en el servidor remoto: (404) No se encontró..
   en System.Net.HttpWebRequest.GetResponse()
   en GrupoGitLib.Model.DataAccess.ApiConexiones.Get[T](String url, Int32 timeOutCnx, String token).
URL: http://10.20.128.26:813/api/OrdenOpeCd/GetConfigAuto?cedi=97&route=467
06/26/2019 12:06:37: Error_ApiConexiones.Get: Error en el servidor remoto: (404) No se encontró..
   en System.Net.HttpWebRequest.GetResponse()
   en GrupoGitLib.Model.DataAccess.ApiConexiones.Get[T](String url, Int32 timeOutCnx, String token).
URL: http://10.20.128.26:813/api/OrdenOpeCd/GetConfigAuto?cedi=97&route=468
06/26/2019 12:06:37: Error_ApiConexiones.Get: Error en el servidor remoto: (404) No se encontró..
   en System.Net.HttpWebRequest.GetResponse()
   en GrupoGitLib.Model.DataAccess.ApiConexiones.Get[T](String url, Int32 timeOutCnx, String token).
URL: http://10.20.128.26:813/api/OrdenOpeCd/GetConfigAuto?cedi=97&route=483
06/26/2019 12:06:37: Error_ApiConexiones.Get: Error en el servidor remoto: (404) No se encontró..
   en System.Net.HttpWebRequest.GetResponse()
   en GrupoGitLib.Model.DataAccess.ApiConexiones.Get[T](String url, Int32 timeOutCnx, String token).
URL: http://10.20.128.26:813/api/OrdenOpeCd/GetConfigAuto?cedi=97&route=484
06/26/2019 12:06:37: Error_ApiConexiones.Get: Error en el servidor remoto: (404) No se encontró..
   en System.Net.HttpWebRequest.GetResponse()
   en GrupoGitLib.Model.DataAccess.ApiConexiones.Get[T](String url, Int32 timeOutCnx, String token).
URL: http://10.20.128.26:813/api/OrdenOpeCd/GetConfigAuto?cedi=97&route=488
06/26/2019 12:06:37: Error_ApiConexiones.Get: Error en el servidor remoto: (404) No se encontró..
   en System.Net.HttpWebRequest.GetResponse()
   en GrupoGitLib.Model.DataAccess.ApiConexiones.Get[T](String url, Int32 timeOutCnx, String token).
URL: http://10.20.128.26:813/api/OrdenOpeCd/GetConfigAuto?cedi=97&route=495
06/26/2019 12:06:37: Error_ApiConexiones.Get: Error en el servidor remoto: (404) No se encontró..
   en System.Net.HttpWebRequest.GetResponse()
   en GrupoGitLib.Model.DataAccess.ApiConexiones.Get[T](String url, Int32 timeOutCnx, String token).
URL: http://10.20.128.26:813/api/OrdenOpeCd/GetConfigAuto?cedi=97&route=515
06/26/2019 12:06:37: Error_ApiConexiones.Get: Error en el servidor remoto: (404) No se encontró..
   en System.Net.HttpWebRequest.GetResponse()
   en GrupoGitLib.Model.DataAccess.ApiConexiones.Get[T](String url, Int32 timeOutCnx, String token).
URL: http://10.20.128.26:813/api/OrdenOpeCd/GetConfigAuto?cedi=97&route=517
06/26/2019 12:06:38: Error_ApiConexiones.Get: Error en el servidor remoto: (404) No se encontró..
   en System.Net.HttpWebRequest.GetResponse()
   en GrupoGitLib.Model.DataAccess.ApiConexiones.Get[T](String url, Int32 timeOutCnx, String token).
URL: http://10.20.128.26:813/api/OrdenOpeCd/GetConfigAuto?cedi=97&route=537
06/26/2019 12:06:38: Error_ApiConexiones.Get: Error en el servidor remoto: (404) No se encontró..
   en System.Net.HttpWebRequest.GetResponse()
   en GrupoGitLib.Model.DataAccess.ApiConexiones.Get[T](String url, Int32 timeOutCnx, String token).
URL: http://10.20.128.26:813/api/OrdenOpeCd/GetConfigAuto?cedi=97&route=458
06/26/2019 12:06:38: Error_ApiConexiones.Get: Error en el servidor remoto: (404) No se encontró..
   en System.Net.HttpWebRequest.GetResponse()
   en GrupoGitLib.Model.DataAccess.ApiConexiones.Get[T](String url, Int32 timeOutCnx, String token).
URL: http://10.20.128.26:813/api/OrdenOpeCd/GetConfigAuto?cedi=97&route=456
06/26/2019 12:06:38: Error_ApiConexiones.Get: Error en el servidor remoto: (404) No se encontró..
   en System.Net.HttpWebRequest.GetResponse()
   en GrupoGitLib.Model.DataAccess.ApiConexiones.Get[T](String url, Int32 timeOutCnx, String token).
URL: http://10.20.128.26:813/api/OrdenOpeCd/GetConfigAuto?cedi=97&route=486
06/26/2019 12:06:38: Error_ApiConexiones.Get: Error en el servidor remoto: (404) No se encontró..
   en System.Net.HttpWebRequest.GetResponse()
   en GrupoGitLib.Model.DataAccess.ApiConexiones.Get[T](String url, Int32 timeOutCnx, String token).
URL: http://10.20.128.26:813/api/OrdenOpeCd/GetConfigAuto?cedi=97&route=514
06/26/2019 12:06:38: Error_ApiConexiones.Get: Error en el servidor remoto: (404) No se encontró..
   en System.Net.HttpWebRequest.GetResponse()
   en GrupoGitLib.Model.DataAccess.ApiConexiones.Get[T](String url, Int32 timeOutCnx, String token).
URL: http://10.20.128.26:813/api/OrdenOpeCd/GetConfigAuto?cedi=97&route=516
06/26/2019 12:06:38: Error_ApiConexiones.Get: Error en el servidor remoto: (404) No se encontró..
   en System.Net.HttpWebRequest.GetResponse()
   en GrupoGitLib.Model.DataAccess.ApiConexiones.Get[T](String url, Int32 timeOutCnx, String token).
URL: http://10.20.128.26:813/api/OrdenOpeCd/GetConfigAuto?cedi=97&route=520
06/26/2019 12:06:38: Error_ApiConexiones.Get: Error en el servidor remoto: (404) No se encontró..
   en System.Net.HttpWebRequest.GetResponse()
   en GrupoGitLib.Model.DataAccess.ApiConexiones.Get[T](String url, Int32 timeOutCnx, String token).
URL: http://10.20.128.26:813/api/OrdenOpeCd/GetConfigAuto?cedi=97&route=474
06/26/2019 12:06:39: Error_ApiConexiones.Get: Error en el servidor remoto: (404) No se encontró..
   en System.Net.HttpWebRequest.GetResponse()
   en GrupoGitLib.Model.DataAccess.ApiConexiones.Get[T](String url, Int32 timeOutCnx, String token).
URL: http://10.20.128.26:813/api/OrdenOpeCd/GetConfigAuto?cedi=97&route=460
06/26/2019 12:06:39: Error_ApiConexiones.Get: Error en el servidor remoto: (404) No se encontró..
   en System.Net.HttpWebRequest.GetResponse()
   en GrupoGitLib.Model.DataAccess.ApiConexiones.Get[T](String url, Int32 timeOutCnx, String token).
URL: http://10.20.128.26:813/api/OrdenOpeCd/GetConfigAuto?cedi=97&route=491
06/26/2019 12:06:39: Error_ApiConexiones.Get: Error en el servidor remoto: (404) No se encontró..
   en System.Net.HttpWebRequest.GetResponse()
   en GrupoGitLib.Model.DataAccess.ApiConexiones.Get[T](String url, Int32 timeOutCnx, String token).
URL: http://10.20.128.26:813/api/OrdenOpeCd/GetConfigAuto?cedi=97&route=502
06/26/2019 12:06:39: Error_ApiConexiones.Get: Error en el servidor remoto: (404) No se encontró..
   en System.Net.HttpWebRequest.GetResponse()
   en GrupoGitLib.Model.DataAccess.ApiConexiones.Get[T](String url, Int32 timeOutCnx, String token).
URL: http://10.20.128.26:813/api/OrdenOpeCd/GetConfigAuto?cedi=97&route=506
06/26/2019 12:06:39: Error_ApiConexiones.Get: Error en el servidor remoto: (404) No se encontró..
   en System.Net.HttpWebRequest.GetResponse()
   en GrupoGitLib.Model.DataAccess.ApiConexiones.Get[T](String url, Int32 timeOutCnx, String token).
URL: http://10.20.128.26:813/api/OrdenOpeCd/GetConfigAuto?cedi=97&route=493
06/26/2019 12:06:39: Error_ApiConexiones.Get: Error en el servidor remoto: (404) No se encontró..
   en System.Net.HttpWebRequest.GetResponse()
   en GrupoGitLib.Model.DataAccess.ApiConexiones.Get[T](String url, Int32 timeOutCnx, String token).
URL: http://10.20.128.26:813/api/OrdenOpeCd/GetConfigAuto?cedi=97&route=485
06/26/2019 12:06:40: Error_ApiConexiones.Get: Error en el servidor remoto: (404) No se encontró..
   en System.Net.HttpWebRequest.GetResponse()
   en GrupoGitLib.Model.DataAccess.ApiConexiones.Get[T](String url, Int32 timeOutCnx, String token).
URL: http://10.20.128.26:813/api/OrdenOpeCd/GetConfigAuto?cedi=97&route=487
06/26/2019 12:06:40: Error_ApiConexiones.Get: Error en el servidor remoto: (404) No se encontró..
   en System.Net.HttpWebRequest.GetResponse()
   en GrupoGitLib.Model.DataAccess.ApiConexiones.Get[T](String url, Int32 timeOutCnx, String token).
URL: http://10.20.128.26:813/api/OrdenOpeCd/GetConfigAuto?cedi=97&route=513
06/26/2019 12:06:40: Error_ApiConexiones.Get: Error en el servidor remoto: (404) No se encontró..
   en System.Net.HttpWebRequest.GetResponse()
   en GrupoGitLib.Model.DataAccess.ApiConexiones.Get[T](String url, Int32 timeOutCnx, String token).
URL: http://10.20.128.26:813/api/OrdenOpeCd/GetConfigAuto?cedi=97&route=482
06/26/2019 12:06:40: Error_ApiConexiones.Get: Error en el servidor remoto: (404) No se encontró..
   en System.Net.HttpWebRequest.GetResponse()
   en GrupoGitLib.Model.DataAccess.ApiConexiones.Get[T](String url, Int32 timeOutCnx, String token).
URL: http://10.20.128.26:813/api/OrdenOpeCd/GetConfigAuto?cedi=97&route=492
06/26/2019 12:06:40: Error_ApiConexiones.Get: Error en el servidor remoto: (404) No se encontró..
   en System.Net.HttpWebRequest.GetResponse()
   en GrupoGitLib.Model.DataAccess.ApiConexiones.Get[T](String url, Int32 timeOutCnx, String token).
URL: http://10.20.128.26:813/api/OrdenOpeCd/GetConfigAuto?cedi=97&route=512
06/26/2019 12:06:40: Error_ApiConexiones.Get: Error en el servidor remoto: (404) No se encontró..
   en System.Net.HttpWebRequest.GetResponse()
   en GrupoGitLib.Model.DataAccess.ApiConexiones.Get[T](String url, Int32 timeOutCnx, String token).
URL: http://10.20.128.26:813/api/OrdenOpeCd/GetConfigAuto?cedi=97&route=478
06/26/2019 12:06:40: Error_ApiConexiones.Get: Error en el servidor remoto: (404) No se encontró..
   en System.Net.HttpWebRequest.GetResponse()
   en GrupoGitLib.Model.DataAccess.ApiConexiones.Get[T](String url, Int32 timeOutCnx, String token).
URL: http://10.20.128.26:813/api/OrdenOpeCd/GetConfigAuto?cedi=97&route=498
06/26/2019 12:06:40: Error_ApiConexiones.Get: Error en el servidor remoto: (404) No se encontró..
   en System.Net.HttpWebRequest.GetResponse()
   en GrupoGitLib.Model.DataAccess.ApiConexiones.Get[T](String url, Int32 timeOutCnx, String token).
URL: http://10.20.128.26:813/api/OrdenOpeCd/GetConfigAuto?cedi=97&route=507
06/26/2019 12:06:41: Error_ApiConexiones.Get: Error en el servidor remoto: (404) No se encontró..
   en System.Net.HttpWebRequest.GetResponse()
   en GrupoGitLib.Model.DataAccess.ApiConexiones.Get[T](String url, Int32 timeOutCnx, String token).
URL: http://10.20.128.26:813/api/OrdenOpeCd/GetConfigAuto?cedi=97&route=510
06/26/2019 12:06:41: Error_ApiConexiones.Get: Error en el servidor remoto: (404) No se encontró..
   en System.Net.HttpWebRequest.GetResponse()
   en GrupoGitLib.Model.DataAccess.ApiConexiones.Get[T](String url, Int32 timeOutCnx, String token).
URL: http://10.20.128.26:813/api/OrdenOpeCd/GetConfigAuto?cedi=97&route=539
06/26/2019 12:06:41: Error_ApiConexiones.Get: Error en el servidor remoto: (404) No se encontró..
   en System.Net.HttpWebRequest.GetResponse()
   en GrupoGitLib.Model.DataAccess.ApiConexiones.Get[T](String url, Int32 timeOutCnx, String token).
URL: http://10.20.128.26:813/api/OrdenOpeCd/GetConfigAuto?cedi=97&route=540
06/26/2019 12:06:41: Error_ApiConexiones.Get: Error en el servidor remoto: (404) No se encontró..
   en System.Net.HttpWebRequest.GetResponse()
   en GrupoGitLib.Model.DataAccess.ApiConexiones.Get[T](String url, Int32 timeOutCnx, String token).
URL: http://10.20.128.26:813/api/OrdenOpeCd/GetConfigAuto?cedi=14&route=369
06/26/2019 12:06:41: Error_ApiConexiones.Get: Error en el servidor remoto: (404) No se encontró..
   en System.Net.HttpWebRequest.GetResponse()
   en GrupoGitLib.Model.DataAccess.ApiConexiones.Get[T](String url, Int32 timeOutCnx, String token).
URL: http://10.20.128.26:813/api/OrdenOpeCd/GetConfigAuto?cedi=14&route=343
06/26/2019 12:06:41: Error_ApiConexiones.Get: Error en el servidor remoto: (404) No se encontró..
   en System.Net.HttpWebRequest.GetResponse()
   en GrupoGitLib.Model.DataAccess.ApiConexiones.Get[T](String url, Int32 timeOutCnx, String token).
URL: http://10.20.128.26:813/api/OrdenOpeCd/GetConfigAuto?cedi=14&route=348
06/26/2019 12:06:41: Error_ApiConexiones.Get: Error en el servidor remoto: (404) No se encontró..
   en System.Net.HttpWebRequest.GetResponse()
   en GrupoGitLib.Model.DataAccess.ApiConexiones.Get[T](String url, Int32 timeOutCnx, String token).
URL: http://10.20.128.26:813/api/OrdenOpeCd/GetConfigAuto?cedi=14&route=370
06/26/2019 12:06:42: Error_ApiConexiones.Get: Error en el servidor remoto: (404) No se encontró..
   en System.Net.HttpWebRequest.GetResponse()
   en GrupoGitLib.Model.DataAccess.ApiConexiones.Get[T](String url, Int32 timeOutCnx, String token).
URL: http://10.20.128.26:813/api/OrdenOpeCd/GetConfigAuto?cedi=14&route=380
06/26/2019 12:06:42: Error_ApiConexiones.Get: Error en el servidor remoto: (404) No se encontró..
   en System.Net.HttpWebRequest.GetResponse()
   en GrupoGitLib.Model.DataAccess.ApiConexiones.Get[T](String url, Int32 timeOutCnx, String token).
URL: http://10.20.128.26:813/api/OrdenOpeCd/GetConfigAuto?cedi=14&route=371
06/26/2019 12:06:42: Error_ApiConexiones.Get: Error en el servidor remoto: (404) No se encontró..
   en System.Net.HttpWebRequest.GetResponse()
   en GrupoGitLib.Model.DataAccess.ApiConexiones.Get[T](String url, Int32 timeOutCnx, String token).
URL: http://10.20.128.26:813/api/OrdenOpeCd/GetConfigAuto?cedi=14&route=379
06/26/2019 12:06:42: Error_ApiConexiones.Get: Error en el servidor remoto: (404) No se encontró..
   en System.Net.HttpWebRequest.GetResponse()
   en GrupoGitLib.Model.DataAccess.ApiConexiones.Get[T](String url, Int32 timeOutCnx, String token).
URL: http://10.20.128.26:813/api/OrdenOpeCd/GetConfigAuto?cedi=14&route=344
06/26/2019 12:06:42: Error_ApiConexiones.Get: Error en el servidor remoto: (404) No se encontró..
   en System.Net.HttpWebRequest.GetResponse()
   en GrupoGitLib.Model.DataAccess.ApiConexiones.Get[T](String url, Int32 timeOutCnx, String token).
URL: http://10.20.128.26:813/api/OrdenOpeCd/GetConfigAuto?cedi=14&route=347
06/26/2019 12:06:42: Error_ApiConexiones.Get: Error en el servidor remoto: (404) No se encontró..
   en System.Net.HttpWebRequest.GetResponse()
   en GrupoGitLib.Model.DataAccess.ApiConexiones.Get[T](String url, Int32 timeOutCnx, String token).
URL: http://10.20.128.26:813/api/OrdenOpeCd/GetConfigAuto?cedi=14&route=345
06/26/2019 12:06:42: Error_ApiConexiones.Get: Error en el servidor remoto: (404) No se encontró..
   en System.Net.HttpWebRequest.GetResponse()
   en GrupoGitLib.Model.DataAccess.ApiConexiones.Get[T](String url, Int32 timeOutCnx, String token).
URL: http://10.20.128.26:813/api/OrdenOpeCd/GetConfigAuto?cedi=14&route=346
06/26/2019 12:06:43: Error_ApiConexiones.Get: Error en el servidor remoto: (404) No se encontró..
   en System.Net.HttpWebRequest.GetResponse()
   en GrupoGitLib.Model.DataAccess.ApiConexiones.Get[T](String url, Int32 timeOutCnx, String token).
URL: http://10.20.128.26:813/api/OrdenOpeCd/GetConfigAuto?cedi=14&route=352
06/26/2019 12:06:43: Error_ApiConexiones.Get: Error en el servidor remoto: (404) No se encontró..
   en System.Net.HttpWebRequest.GetResponse()
   en GrupoGitLib.Model.DataAccess.ApiConexiones.Get[T](String url, Int32 timeOutCnx, String token).
URL: http://10.20.128.26:813/api/OrdenOpeCd/GetConfigAuto?cedi=14&route=359
06/26/2019 12:06:43: Error_ApiConexiones.Get: Error en el servidor remoto: (404) No se encontró..
   en System.Net.HttpWebRequest.GetResponse()
   en GrupoGitLib.Model.DataAccess.ApiConexiones.Get[T](String url, Int32 timeOutCnx, String token).
URL: http://10.20.128.26:813/api/OrdenOpeCd/GetConfigAuto?cedi=14&route=360
06/26/2019 12:06:43: Error_ApiConexiones.Get: Error en el servidor remoto: (404) No se encontró..
   en System.Net.HttpWebRequest.GetResponse()
   en GrupoGitLib.Model.DataAccess.ApiConexiones.Get[T](String url, Int32 timeOutCnx, String token).
URL: http://10.20.128.26:813/api/OrdenOpeCd/GetConfigAuto?cedi=14&route=361
06/26/2019 12:06:43: Error_ApiConexiones.Get: Error en el servidor remoto: (404) No se encontró..
   en System.Net.HttpWebRequest.GetResponse()
   en GrupoGitLib.Model.DataAccess.ApiConexiones.Get[T](String url, Int32 timeOutCnx, String token).
URL: http://10.20.128.26:813/api/OrdenOpeCd/GetConfigAuto?cedi=14&route=372
06/26/2019 12:06:43: Error_ApiConexiones.Get: Error en el servidor remoto: (404) No se encontró..
   en System.Net.HttpWebRequest.GetResponse()
   en GrupoGitLib.Model.DataAccess.ApiConexiones.Get[T](String url, Int32 timeOutCnx, String token).
URL: http://10.20.128.26:813/api/OrdenOpeCd/GetConfigAuto?cedi=14&route=378
06/26/2019 12:06:43: Error_ApiConexiones.Get: Error en el servidor remoto: (404) No se encontró..
   en System.Net.HttpWebRequest.GetResponse()
   en GrupoGitLib.Model.DataAccess.ApiConexiones.Get[T](String url, Int32 timeOutCnx, String token).
URL: http://10.20.128.26:813/api/OrdenOpeCd/GetConfigAuto?cedi=14&route=392
