10/30/2018 17:57:12: Error_ApiConexiones.Get: Error en el servidor remoto: (500) Error interno del servidor..
   en System.Net.HttpWebRequest.GetResponse()
   en GrupoGitLib.Model.DataAccess.ApiConexiones.Get[T](String url, Int32 timeOutCnx, String token).
URL: http://pbasworkbycloudds.bepensa.com:83/OpeCDAPI/api/PrecioClienteCoca?cedisId=97&barcode=0&deliveryDate=2018-10-30T00:00:00
10/30/2018 18:22:24: Error_ApiConexiones.Get: Error en el servidor remoto: (500) Error interno del servidor..
   en System.Net.HttpWebRequest.GetResponse()
   en GrupoGitLib.Model.DataAccess.ApiConexiones.Get[T](String url, Int32 timeOutCnx, String token).
URL: http://pbasworkbycloudds.bepensa.com:83/OpeCDAPI/api/PrecioClienteCoca?cedisId=97&barcode=260569&deliveryDate=2018-10-30T00:00:00
