10/10/2018 08:16:01: Error_ApiConexiones.Post: Anulada la solicitud: Se excedió el tiempo de espera de la operación..
   en System.Net.HttpWebRequest.GetResponse()
   en GrupoGitLib.Model.DataAccess.ApiConexiones.Post[T](String url, Int32 timeOutCnx, String json, String token).
URL: http://localhost:81/api/Inventario/TripInventory
10/10/2018 08:16:01: Error_ApiConexiones.Post: Anulada la solicitud: Se excedió el tiempo de espera de la operación..
   en System.Net.HttpWebRequest.GetResponse()
   en GrupoGitLib.Model.DataAccess.ApiConexiones.Post[T](String url, Int32 timeOutCnx, String json, String token).
URL: http://localhost:81/api/Inventario/TripInventory
10/10/2018 08:16:04: Error_ApiConexiones.Get: Anulada la solicitud: Se excedió el tiempo de espera de la operación..
   en System.Net.HttpWebRequest.GetResponse()
   en GrupoGitLib.Model.DataAccess.ApiConexiones.Get[T](String url, Int32 timeOutCnx, String token).
URL: http://localhost:82/api/Log?groupedByCedis=False&cedisId=97&routeId=450&deliveryDate=2018-10-10
10/10/2018 08:16:09: Error_ApiConexiones.Get: Anulada la solicitud: Se excedió el tiempo de espera de la operación..
   en System.Net.HttpWebRequest.GetResponse()
   en GrupoGitLib.Model.DataAccess.ApiConexiones.Get[T](String url, Int32 timeOutCnx, String token).
URL: http://localhost:82/api/Log?groupedByCedis=False&cedisId=97&routeId=472&deliveryDate=2018-10-10
10/10/2018 08:16:30: Error_ApiConexiones.Post: Error en el servidor remoto: (500) Error interno del servidor..
   en System.Net.HttpWebRequest.GetResponse()
   en GrupoGitLib.Model.DataAccess.ApiConexiones.Post[T](String url, Int32 timeOutCnx, String json, String token).
URL: http://localhost:82/api/Log
10/10/2018 08:16:31: Error_ApiConexiones.Post: Error en el servidor remoto: (500) Error interno del servidor..
   en System.Net.HttpWebRequest.GetResponse()
   en GrupoGitLib.Model.DataAccess.ApiConexiones.Post[T](String url, Int32 timeOutCnx, String json, String token).
URL: http://localhost:82/api/Log
10/10/2018 08:16:31: Error_ApiConexiones.Post: Error en el servidor remoto: (500) Error interno del servidor..
   en System.Net.HttpWebRequest.GetResponse()
   en GrupoGitLib.Model.DataAccess.ApiConexiones.Post[T](String url, Int32 timeOutCnx, String json, String token).
URL: http://localhost:82/api/Log
10/10/2018 08:16:32: Error_ApiConexiones.Post: Error en el servidor remoto: (500) Error interno del servidor..
   en System.Net.HttpWebRequest.GetResponse()
   en GrupoGitLib.Model.DataAccess.ApiConexiones.Post[T](String url, Int32 timeOutCnx, String json, String token).
URL: http://localhost:82/api/Log
10/10/2018 08:18:36: Error_ApiConexiones.Post: Anulada la solicitud: Se excedió el tiempo de espera de la operación..
   en System.Net.HttpWebRequest.GetResponse()
   en GrupoGitLib.Model.DataAccess.ApiConexiones.Post[T](String url, Int32 timeOutCnx, String json, String token).
URL: http://localhost:81/api/Inventario/TripInventory
10/10/2018 08:18:36: Error_ApiConexiones.Get: Anulada la solicitud: Se excedió el tiempo de espera de la operación..
   en System.Net.HttpWebRequest.GetResponse()
   en GrupoGitLib.Model.DataAccess.ApiConexiones.Get[T](String url, Int32 timeOutCnx, String token).
URL: http://localhost:82/api/Log?groupedByCedis=False&cedisId=97&routeId=481&deliveryDate=2018-10-10
10/10/2018 08:18:37: Error_ApiConexiones.Get: Anulada la solicitud: Se excedió el tiempo de espera de la operación..
   en System.Net.HttpWebRequest.GetResponse()
   en GrupoGitLib.Model.DataAccess.ApiConexiones.Get[T](String url, Int32 timeOutCnx, String token).
URL: http://localhost:82/api/Log?groupedByCedis=False&cedisId=97&routeId=489&deliveryDate=2018-10-10
10/10/2018 08:20:17: Error_ApiConexiones.Post: Anulada la solicitud: Se excedió el tiempo de espera de la operación..
   en System.Net.HttpWebRequest.GetResponse()
   en GrupoGitLib.Model.DataAccess.ApiConexiones.Post[T](String url, Int32 timeOutCnx, String json, String token).
URL: http://localhost:81/api/Inventario/TripInventory
10/10/2018 08:20:18: Error_ApiConexiones.Get: Anulada la solicitud: Se excedió el tiempo de espera de la operación..
   en System.Net.HttpWebRequest.GetResponse()
   en GrupoGitLib.Model.DataAccess.ApiConexiones.Get[T](String url, Int32 timeOutCnx, String token).
URL: http://localhost:82/api/jornadasFinalizadas?cedisId=97&routeId=473&deliveryDate=2018-10-10
10/10/2018 08:20:18: Error_ApiConexiones.Post: Anulada la solicitud: Se excedió el tiempo de espera de la operación..
   en System.Net.HttpWebRequest.GetResponse()
   en GrupoGitLib.Model.DataAccess.ApiConexiones.Post[T](String url, Int32 timeOutCnx, String json, String token).
URL: http://localhost:81/api/Inventario/TripInventory
10/10/2018 08:20:18: Error_ApiConexiones.Get: Anulada la solicitud: Se excedió el tiempo de espera de la operación..
   en System.Net.HttpWebRequest.GetResponse()
   en GrupoGitLib.Model.DataAccess.ApiConexiones.Get[T](String url, Int32 timeOutCnx, String token).
URL: http://localhost:82/api/jornadasFinalizadas?cedisId=97&routeId=459&deliveryDate=2018-10-10
10/10/2018 08:20:18: Error_ApiConexiones.Get: Anulada la solicitud: Se excedió el tiempo de espera de la operación..
   en System.Net.HttpWebRequest.GetResponse()
   en GrupoGitLib.Model.DataAccess.ApiConexiones.Get[T](String url, Int32 timeOutCnx, String token).
URL: http://localhost:82/api/jornadasFinalizadas?cedisId=97&routeId=479&deliveryDate=2018-10-10
10/10/2018 08:21:59: Error_ApiConexiones.Post: Anulada la solicitud: Se excedió el tiempo de espera de la operación..
   en System.Net.HttpWebRequest.GetResponse()
   en GrupoGitLib.Model.DataAccess.ApiConexiones.Post[T](String url, Int32 timeOutCnx, String json, String token).
URL: http://localhost:81/api/Inventario/TripInventory
10/10/2018 08:21:59: Error_ApiConexiones.Post: Anulada la solicitud: Se excedió el tiempo de espera de la operación..
   en System.Net.HttpWebRequest.GetResponse()
   en GrupoGitLib.Model.DataAccess.ApiConexiones.Post[T](String url, Int32 timeOutCnx, String json, String token).
URL: http://localhost:81/api/Inventario/TripInventory
10/10/2018 08:21:59: Error_ApiConexiones.Post: Anulada la solicitud: Se excedió el tiempo de espera de la operación..
   en System.Net.HttpWebRequest.GetResponse()
   en GrupoGitLib.Model.DataAccess.ApiConexiones.Post[T](String url, Int32 timeOutCnx, String json, String token).
URL: http://localhost:81/api/Inventario/TripInventory
10/10/2018 08:21:59: Error_ApiConexiones.Post: Anulada la solicitud: Se excedió el tiempo de espera de la operación..
   en System.Net.HttpWebRequest.GetResponse()
   en GrupoGitLib.Model.DataAccess.ApiConexiones.Post[T](String url, Int32 timeOutCnx, String json, String token).
URL: http://localhost:81/api/Inventario/TripInventory
10/10/2018 08:23:42: Error_ApiConexiones.Post: Anulada la solicitud: Se excedió el tiempo de espera de la operación..
   en System.Net.HttpWebRequest.GetResponse()
   en GrupoGitLib.Model.DataAccess.ApiConexiones.Post[T](String url, Int32 timeOutCnx, String json, String token).
URL: http://localhost:81/api/Inventario/TripInventory
10/10/2018 08:23:42: Error_ApiConexiones.Post: Anulada la solicitud: Se excedió el tiempo de espera de la operación..
   en System.Net.HttpWebRequest.GetResponse()
   en GrupoGitLib.Model.DataAccess.ApiConexiones.Post[T](String url, Int32 timeOutCnx, String json, String token).
URL: http://localhost:81/api/Inventario/TripInventory
10/10/2018 08:23:43: Error_ApiConexiones.Post: Anulada la solicitud: Se excedió el tiempo de espera de la operación..
   en System.Net.HttpWebRequest.GetResponse()
   en GrupoGitLib.Model.DataAccess.ApiConexiones.Post[T](String url, Int32 timeOutCnx, String json, String token).
URL: http://localhost:81/api/Inventario/TripInventory
10/10/2018 08:23:43: Error_ApiConexiones.Post: Anulada la solicitud: Se excedió el tiempo de espera de la operación..
   en System.Net.HttpWebRequest.GetResponse()
   en GrupoGitLib.Model.DataAccess.ApiConexiones.Post[T](String url, Int32 timeOutCnx, String json, String token).
URL: http://localhost:81/api/Inventario/TripInventory
10/10/2018 08:23:43: Error_ApiConexiones.Post: Anulada la solicitud: Se excedió el tiempo de espera de la operación..
   en System.Net.HttpWebRequest.GetResponse()
   en GrupoGitLib.Model.DataAccess.ApiConexiones.Post[T](String url, Int32 timeOutCnx, String json, String token).
URL: http://localhost:81/api/Inventario/TripInventory
10/10/2018 08:26:18: Error_ApiConexiones.Post: Error en el servidor remoto: (500) Error interno del servidor..
   en System.Net.HttpWebRequest.GetResponse()
   en GrupoGitLib.Model.DataAccess.ApiConexiones.Post[T](String url, Int32 timeOutCnx, String json, String token).
URL: http://localhost:82/api/Log
10/10/2018 08:26:18: Error_ApiConexiones.Post: Error en el servidor remoto: (500) Error interno del servidor..
   en System.Net.HttpWebRequest.GetResponse()
   en GrupoGitLib.Model.DataAccess.ApiConexiones.Post[T](String url, Int32 timeOutCnx, String json, String token).
URL: http://localhost:82/api/Log
10/10/2018 08:26:34: Error_ApiConexiones.Post: Error en el servidor remoto: (500) Error interno del servidor..
   en System.Net.HttpWebRequest.GetResponse()
   en GrupoGitLib.Model.DataAccess.ApiConexiones.Post[T](String url, Int32 timeOutCnx, String json, String token).
URL: http://localhost:82/api/Log
10/10/2018 08:26:34: Error_ApiConexiones.Post: Error en el servidor remoto: (500) Error interno del servidor..
   en System.Net.HttpWebRequest.GetResponse()
   en GrupoGitLib.Model.DataAccess.ApiConexiones.Post[T](String url, Int32 timeOutCnx, String json, String token).
URL: http://localhost:82/api/Log
10/10/2018 08:26:34: Error_ApiConexiones.Post: Error en el servidor remoto: (500) Error interno del servidor..
   en System.Net.HttpWebRequest.GetResponse()
   en GrupoGitLib.Model.DataAccess.ApiConexiones.Post[T](String url, Int32 timeOutCnx, String json, String token).
URL: http://localhost:82/api/Log
10/10/2018 08:26:35: Error_ApiConexiones.Post: Error en el servidor remoto: (500) Error interno del servidor..
   en System.Net.HttpWebRequest.GetResponse()
   en GrupoGitLib.Model.DataAccess.ApiConexiones.Post[T](String url, Int32 timeOutCnx, String json, String token).
URL: http://localhost:82/api/Log
10/10/2018 08:26:35: Error_ApiConexiones.Post: Error en el servidor remoto: (500) Error interno del servidor..
   en System.Net.HttpWebRequest.GetResponse()
   en GrupoGitLib.Model.DataAccess.ApiConexiones.Post[T](String url, Int32 timeOutCnx, String json, String token).
URL: http://localhost:82/api/Log
10/10/2018 08:27:26: Error_ApiConexiones.Post: Error en el servidor remoto: (500) Error interno del servidor..
   en System.Net.HttpWebRequest.GetResponse()
   en GrupoGitLib.Model.DataAccess.ApiConexiones.Post[T](String url, Int32 timeOutCnx, String json, String token).
URL: http://localhost:82/api/Log
10/10/2018 08:27:28: Error_ApiConexiones.Post: Error en el servidor remoto: (500) Error interno del servidor..
   en System.Net.HttpWebRequest.GetResponse()
   en GrupoGitLib.Model.DataAccess.ApiConexiones.Post[T](String url, Int32 timeOutCnx, String json, String token).
URL: http://localhost:82/api/Log
10/10/2018 08:27:29: Error_ApiConexiones.Post: Error en el servidor remoto: (500) Error interno del servidor..
   en System.Net.HttpWebRequest.GetResponse()
   en GrupoGitLib.Model.DataAccess.ApiConexiones.Post[T](String url, Int32 timeOutCnx, String json, String token).
URL: http://localhost:82/api/Log
10/10/2018 08:27:29: Error_ApiConexiones.Post: Error en el servidor remoto: (500) Error interno del servidor..
   en System.Net.HttpWebRequest.GetResponse()
   en GrupoGitLib.Model.DataAccess.ApiConexiones.Post[T](String url, Int32 timeOutCnx, String json, String token).
URL: http://localhost:82/api/Log
10/10/2018 08:27:31: Error_ApiConexiones.Post: Error en el servidor remoto: (500) Error interno del servidor..
   en System.Net.HttpWebRequest.GetResponse()
   en GrupoGitLib.Model.DataAccess.ApiConexiones.Post[T](String url, Int32 timeOutCnx, String json, String token).
URL: http://localhost:82/api/Log
10/10/2018 08:27:31: Error_ApiConexiones.Post: Error en el servidor remoto: (500) Error interno del servidor..
   en System.Net.HttpWebRequest.GetResponse()
   en GrupoGitLib.Model.DataAccess.ApiConexiones.Post[T](String url, Int32 timeOutCnx, String json, String token).
URL: http://localhost:82/api/Log
10/10/2018 08:27:31: Error_ApiConexiones.Post: Error en el servidor remoto: (500) Error interno del servidor..
   en System.Net.HttpWebRequest.GetResponse()
   en GrupoGitLib.Model.DataAccess.ApiConexiones.Post[T](String url, Int32 timeOutCnx, String json, String token).
URL: http://localhost:82/api/Log
10/10/2018 08:27:32: Error_ApiConexiones.Post: Error en el servidor remoto: (500) Error interno del servidor..
   en System.Net.HttpWebRequest.GetResponse()
   en GrupoGitLib.Model.DataAccess.ApiConexiones.Post[T](String url, Int32 timeOutCnx, String json, String token).
URL: http://localhost:82/api/Log
10/10/2018 08:27:32: Error_ApiConexiones.Post: Error en el servidor remoto: (500) Error interno del servidor..
   en System.Net.HttpWebRequest.GetResponse()
   en GrupoGitLib.Model.DataAccess.ApiConexiones.Post[T](String url, Int32 timeOutCnx, String json, String token).
URL: http://localhost:82/api/Log
10/10/2018 08:27:33: Error_ApiConexiones.Post: Error en el servidor remoto: (500) Error interno del servidor..
   en System.Net.HttpWebRequest.GetResponse()
   en GrupoGitLib.Model.DataAccess.ApiConexiones.Post[T](String url, Int32 timeOutCnx, String json, String token).
URL: http://localhost:82/api/Log
10/10/2018 08:27:34: Error_ApiConexiones.Post: Error en el servidor remoto: (500) Error interno del servidor..
   en System.Net.HttpWebRequest.GetResponse()
   en GrupoGitLib.Model.DataAccess.ApiConexiones.Post[T](String url, Int32 timeOutCnx, String json, String token).
URL: http://localhost:82/api/Log
10/10/2018 08:27:37: Error_ApiConexiones.Post: Error en el servidor remoto: (500) Error interno del servidor..
   en System.Net.HttpWebRequest.GetResponse()
   en GrupoGitLib.Model.DataAccess.ApiConexiones.Post[T](String url, Int32 timeOutCnx, String json, String token).
URL: http://localhost:82/api/Log
10/10/2018 08:28:11: Error_ApiConexiones.Post: Error en el servidor remoto: (500) Error interno del servidor..
   en System.Net.HttpWebRequest.GetResponse()
   en GrupoGitLib.Model.DataAccess.ApiConexiones.Post[T](String url, Int32 timeOutCnx, String json, String token).
URL: http://localhost:82/api/inventario
10/10/2018 08:28:14: Error_ApiConexiones.Post: Error en el servidor remoto: (500) Error interno del servidor..
   en System.Net.HttpWebRequest.GetResponse()
   en GrupoGitLib.Model.DataAccess.ApiConexiones.Post[T](String url, Int32 timeOutCnx, String json, String token).
URL: http://localhost:82/api/Log
10/10/2018 08:28:15: Error_ApiConexiones.Post: Error en el servidor remoto: (500) Error interno del servidor..
   en System.Net.HttpWebRequest.GetResponse()
   en GrupoGitLib.Model.DataAccess.ApiConexiones.Post[T](String url, Int32 timeOutCnx, String json, String token).
URL: http://localhost:82/api/Log
10/10/2018 08:28:16: Error_ApiConexiones.Post: Error en el servidor remoto: (500) Error interno del servidor..
   en System.Net.HttpWebRequest.GetResponse()
   en GrupoGitLib.Model.DataAccess.ApiConexiones.Post[T](String url, Int32 timeOutCnx, String json, String token).
URL: http://localhost:82/api/Log
10/10/2018 08:28:24: Error_ApiConexiones.Post: Error en el servidor remoto: (500) Error interno del servidor..
   en System.Net.HttpWebRequest.GetResponse()
   en GrupoGitLib.Model.DataAccess.ApiConexiones.Post[T](String url, Int32 timeOutCnx, String json, String token).
URL: http://localhost:82/api/Log
10/10/2018 08:28:24: Error_ApiConexiones.Post: Error en el servidor remoto: (500) Error interno del servidor..
   en System.Net.HttpWebRequest.GetResponse()
   en GrupoGitLib.Model.DataAccess.ApiConexiones.Post[T](String url, Int32 timeOutCnx, String json, String token).
URL: http://localhost:82/api/Log
10/10/2018 08:28:25: Error_ApiConexiones.Post: Error en el servidor remoto: (500) Error interno del servidor..
   en System.Net.HttpWebRequest.GetResponse()
   en GrupoGitLib.Model.DataAccess.ApiConexiones.Post[T](String url, Int32 timeOutCnx, String json, String token).
URL: http://localhost:82/api/Log
10/10/2018 08:28:25: Error_ApiConexiones.Post: Error en el servidor remoto: (500) Error interno del servidor..
   en System.Net.HttpWebRequest.GetResponse()
   en GrupoGitLib.Model.DataAccess.ApiConexiones.Post[T](String url, Int32 timeOutCnx, String json, String token).
URL: http://localhost:82/api/Log
10/10/2018 08:28:25: Error_ApiConexiones.Post: Error en el servidor remoto: (500) Error interno del servidor..
   en System.Net.HttpWebRequest.GetResponse()
   en GrupoGitLib.Model.DataAccess.ApiConexiones.Post[T](String url, Int32 timeOutCnx, String json, String token).
URL: http://localhost:82/api/Log
10/10/2018 08:28:25: Error_ApiConexiones.Post: Error en el servidor remoto: (500) Error interno del servidor..
   en System.Net.HttpWebRequest.GetResponse()
   en GrupoGitLib.Model.DataAccess.ApiConexiones.Post[T](String url, Int32 timeOutCnx, String json, String token).
URL: http://localhost:82/api/Log
10/10/2018 08:28:25: Error_ApiConexiones.Post: Error en el servidor remoto: (500) Error interno del servidor..
   en System.Net.HttpWebRequest.GetResponse()
   en GrupoGitLib.Model.DataAccess.ApiConexiones.Post[T](String url, Int32 timeOutCnx, String json, String token).
URL: http://localhost:82/api/Log
10/10/2018 08:28:26: Error_ApiConexiones.Post: Error en el servidor remoto: (500) Error interno del servidor..
   en System.Net.HttpWebRequest.GetResponse()
   en GrupoGitLib.Model.DataAccess.ApiConexiones.Post[T](String url, Int32 timeOutCnx, String json, String token).
URL: http://localhost:82/api/Log
10/10/2018 08:28:26: Error_ApiConexiones.Post: Error en el servidor remoto: (500) Error interno del servidor..
   en System.Net.HttpWebRequest.GetResponse()
   en GrupoGitLib.Model.DataAccess.ApiConexiones.Post[T](String url, Int32 timeOutCnx, String json, String token).
URL: http://localhost:82/api/Log
10/10/2018 08:28:56: Error_ApiConexiones.Post: Error en el servidor remoto: (500) Error interno del servidor..
   en System.Net.HttpWebRequest.GetResponse()
   en GrupoGitLib.Model.DataAccess.ApiConexiones.Post[T](String url, Int32 timeOutCnx, String json, String token).
URL: http://localhost:82/api/inventario
10/10/2018 08:28:56: Error_ApiConexiones.Post: Error en el servidor remoto: (500) Error interno del servidor..
   en System.Net.HttpWebRequest.GetResponse()
   en GrupoGitLib.Model.DataAccess.ApiConexiones.Post[T](String url, Int32 timeOutCnx, String json, String token).
URL: http://localhost:82/api/inventario
10/10/2018 08:30:42: Error_ApiConexiones.Post: Anulada la solicitud: Se excedió el tiempo de espera de la operación..
   en System.Net.HttpWebRequest.GetResponse()
   en GrupoGitLib.Model.DataAccess.ApiConexiones.Post[T](String url, Int32 timeOutCnx, String json, String token).
URL: http://localhost:81/api/Inventario/TripInventory
10/10/2018 08:30:42: Error_ApiConexiones.Post: Anulada la solicitud: Se excedió el tiempo de espera de la operación..
   en System.Net.HttpWebRequest.GetResponse()
   en GrupoGitLib.Model.DataAccess.ApiConexiones.Post[T](String url, Int32 timeOutCnx, String json, String token).
URL: http://localhost:81/api/Inventario/TripInventory
10/10/2018 08:30:52: Error_ApiConexiones.Post: Error en el servidor remoto: (500) Error interno del servidor..
   en System.Net.HttpWebRequest.GetResponse()
   en GrupoGitLib.Model.DataAccess.ApiConexiones.Post[T](String url, Int32 timeOutCnx, String json, String token).
URL: http://localhost:82/api/Log
10/10/2018 08:30:53: Error_ApiConexiones.Post: Error en el servidor remoto: (500) Error interno del servidor..
   en System.Net.HttpWebRequest.GetResponse()
   en GrupoGitLib.Model.DataAccess.ApiConexiones.Post[T](String url, Int32 timeOutCnx, String json, String token).
URL: http://localhost:82/api/Log
10/10/2018 08:30:53: Error_ApiConexiones.Post: Error en el servidor remoto: (500) Error interno del servidor..
   en System.Net.HttpWebRequest.GetResponse()
   en GrupoGitLib.Model.DataAccess.ApiConexiones.Post[T](String url, Int32 timeOutCnx, String json, String token).
URL: http://localhost:82/api/Log
10/10/2018 08:32:12: Error_ApiConexiones.Post: Anulada la solicitud: Se excedió el tiempo de espera de la operación..
   en System.Net.HttpWebRequest.GetResponse()
   en GrupoGitLib.Model.DataAccess.ApiConexiones.Post[T](String url, Int32 timeOutCnx, String json, String token).
URL: http://localhost:81/api/Inventario/TripInventory
10/10/2018 08:32:22: Error_ApiConexiones.Get: Anulada la solicitud: Se excedió el tiempo de espera de la operación..
   en System.Net.HttpWebRequest.GetResponse()
   en GrupoGitLib.Model.DataAccess.ApiConexiones.Get[T](String url, Int32 timeOutCnx, String token).
URL: http://localhost:82/api/jornadasFinalizadas?cedisId=97&routeId=480&deliveryDate=2018-10-10
10/10/2018 08:32:23: Error_ApiConexiones.Get: Anulada la solicitud: Se excedió el tiempo de espera de la operación..
   en System.Net.HttpWebRequest.GetResponse()
   en GrupoGitLib.Model.DataAccess.ApiConexiones.Get[T](String url, Int32 timeOutCnx, String token).
URL: http://localhost:82/api/jornadasFinalizadas?cedisId=97&routeId=454&deliveryDate=2018-10-10
10/10/2018 08:32:23: Error_ApiConexiones.Get: Anulada la solicitud: Se excedió el tiempo de espera de la operación..
   en System.Net.HttpWebRequest.GetResponse()
   en GrupoGitLib.Model.DataAccess.ApiConexiones.Get[T](String url, Int32 timeOutCnx, String token).
URL: http://localhost:82/api/jornadasFinalizadas?cedisId=97&routeId=463&deliveryDate=2018-10-10
10/10/2018 08:32:33: Error_ApiConexiones.Post: Error en el servidor remoto: (500) Error interno del servidor..
   en System.Net.HttpWebRequest.GetResponse()
   en GrupoGitLib.Model.DataAccess.ApiConexiones.Post[T](String url, Int32 timeOutCnx, String json, String token).
URL: http://localhost:82/api/Log
10/10/2018 08:32:45: Error_ApiConexiones.Post: Error en el servidor remoto: (500) Error interno del servidor..
   en System.Net.HttpWebRequest.GetResponse()
   en GrupoGitLib.Model.DataAccess.ApiConexiones.Post[T](String url, Int32 timeOutCnx, String json, String token).
URL: http://localhost:82/api/Log
10/10/2018 08:32:46: Error_ApiConexiones.Post: Error en el servidor remoto: (500) Error interno del servidor..
   en System.Net.HttpWebRequest.GetResponse()
   en GrupoGitLib.Model.DataAccess.ApiConexiones.Post[T](String url, Int32 timeOutCnx, String json, String token).
URL: http://localhost:82/api/Log
10/10/2018 08:32:47: Error_ApiConexiones.Post: Error en el servidor remoto: (500) Error interno del servidor..
   en System.Net.HttpWebRequest.GetResponse()
   en GrupoGitLib.Model.DataAccess.ApiConexiones.Post[T](String url, Int32 timeOutCnx, String json, String token).
URL: http://localhost:82/api/Log
10/10/2018 08:32:47: Error_ApiConexiones.Post: Error en el servidor remoto: (500) Error interno del servidor..
   en System.Net.HttpWebRequest.GetResponse()
   en GrupoGitLib.Model.DataAccess.ApiConexiones.Post[T](String url, Int32 timeOutCnx, String json, String token).
URL: http://localhost:82/api/Log
10/10/2018 08:32:48: Error_ApiConexiones.Post: Error en el servidor remoto: (500) Error interno del servidor..
   en System.Net.HttpWebRequest.GetResponse()
   en GrupoGitLib.Model.DataAccess.ApiConexiones.Post[T](String url, Int32 timeOutCnx, String json, String token).
URL: http://localhost:82/api/Log
10/10/2018 08:32:49: Error_ApiConexiones.Post: Error en el servidor remoto: (500) Error interno del servidor..
   en System.Net.HttpWebRequest.GetResponse()
   en GrupoGitLib.Model.DataAccess.ApiConexiones.Post[T](String url, Int32 timeOutCnx, String json, String token).
URL: http://localhost:82/api/Log
10/10/2018 08:32:50: Error_ApiConexiones.Post: Error en el servidor remoto: (500) Error interno del servidor..
   en System.Net.HttpWebRequest.GetResponse()
   en GrupoGitLib.Model.DataAccess.ApiConexiones.Post[T](String url, Int32 timeOutCnx, String json, String token).
URL: http://localhost:82/api/Log
10/10/2018 08:32:51: Error_ApiConexiones.Post: Error en el servidor remoto: (500) Error interno del servidor..
   en System.Net.HttpWebRequest.GetResponse()
   en GrupoGitLib.Model.DataAccess.ApiConexiones.Post[T](String url, Int32 timeOutCnx, String json, String token).
URL: http://localhost:82/api/Log
10/10/2018 08:32:51: Error_ApiConexiones.Post: Error en el servidor remoto: (500) Error interno del servidor..
   en System.Net.HttpWebRequest.GetResponse()
   en GrupoGitLib.Model.DataAccess.ApiConexiones.Post[T](String url, Int32 timeOutCnx, String json, String token).
URL: http://localhost:82/api/Log
10/10/2018 08:32:52: Error_ApiConexiones.Post: Error en el servidor remoto: (500) Error interno del servidor..
   en System.Net.HttpWebRequest.GetResponse()
   en GrupoGitLib.Model.DataAccess.ApiConexiones.Post[T](String url, Int32 timeOutCnx, String json, String token).
URL: http://localhost:82/api/Log
10/10/2018 08:32:52: Error_ApiConexiones.Post: Error en el servidor remoto: (500) Error interno del servidor..
   en System.Net.HttpWebRequest.GetResponse()
   en GrupoGitLib.Model.DataAccess.ApiConexiones.Post[T](String url, Int32 timeOutCnx, String json, String token).
URL: http://localhost:82/api/Log
10/10/2018 08:32:54: Error_ApiConexiones.Post: Error en el servidor remoto: (500) Error interno del servidor..
   en System.Net.HttpWebRequest.GetResponse()
   en GrupoGitLib.Model.DataAccess.ApiConexiones.Post[T](String url, Int32 timeOutCnx, String json, String token).
URL: http://localhost:82/api/Log
10/10/2018 08:32:57: Error_ApiConexiones.Post: Error en el servidor remoto: (500) Error interno del servidor..
   en System.Net.HttpWebRequest.GetResponse()
   en GrupoGitLib.Model.DataAccess.ApiConexiones.Post[T](String url, Int32 timeOutCnx, String json, String token).
URL: http://localhost:82/api/Log
10/10/2018 08:33:22: Error_ApiConexiones.Post: Error en el servidor remoto: (500) Error interno del servidor..
   en System.Net.HttpWebRequest.GetResponse()
   en GrupoGitLib.Model.DataAccess.ApiConexiones.Post[T](String url, Int32 timeOutCnx, String json, String token).
URL: http://localhost:82/api/inventario
10/10/2018 08:34:54: Error_ApiConexiones.Post: Error en el servidor remoto: (500) Error interno del servidor..
   en System.Net.HttpWebRequest.GetResponse()
   en GrupoGitLib.Model.DataAccess.ApiConexiones.Post[T](String url, Int32 timeOutCnx, String json, String token).
URL: http://localhost:82/api/Log
10/10/2018 08:39:39: Error_ApiConexiones.Post: Anulada la solicitud: Se excedió el tiempo de espera de la operación..
   en System.Net.HttpWebRequest.GetResponse()
   en GrupoGitLib.Model.DataAccess.ApiConexiones.Post[T](String url, Int32 timeOutCnx, String json, String token).
URL: http://localhost:81/api/Inventario/TripInventory
10/10/2018 08:39:40: Error_ApiConexiones.Post: Anulada la solicitud: Se excedió el tiempo de espera de la operación..
   en System.Net.HttpWebRequest.GetResponse()
   en GrupoGitLib.Model.DataAccess.ApiConexiones.Post[T](String url, Int32 timeOutCnx, String json, String token).
URL: http://localhost:81/api/Inventario/TripInventory
10/10/2018 08:39:40: Error_ApiConexiones.Get: Anulada la solicitud: Se excedió el tiempo de espera de la operación..
   en System.Net.HttpWebRequest.GetResponse()
   en GrupoGitLib.Model.DataAccess.ApiConexiones.Get[T](String url, Int32 timeOutCnx, String token).
URL: http://localhost:82/api/Log?groupedByCedis=False&cedisId=97&routeId=473&deliveryDate=2018-10-10
10/10/2018 08:39:40: Error_ApiConexiones.Get: Anulada la solicitud: Se excedió el tiempo de espera de la operación..
   en System.Net.HttpWebRequest.GetResponse()
   en GrupoGitLib.Model.DataAccess.ApiConexiones.Get[T](String url, Int32 timeOutCnx, String token).
URL: http://localhost:82/api/Log?groupedByCedis=False&cedisId=97&routeId=479&deliveryDate=2018-10-10
10/10/2018 08:39:41: Error_ApiConexiones.Get: Anulada la solicitud: Se excedió el tiempo de espera de la operación..
   en System.Net.HttpWebRequest.GetResponse()
   en GrupoGitLib.Model.DataAccess.ApiConexiones.Get[T](String url, Int32 timeOutCnx, String token).
URL: http://localhost:82/api/Log?groupedByCedis=False&cedisId=97&routeId=459&deliveryDate=2018-10-10
10/10/2018 08:39:42: Error_ApiConexiones.Get: Se excedió el tiempo de espera de la operación.
   en System.Net.HttpWebRequest.GetResponse()
   en GrupoGitLib.Model.DataAccess.ApiConexiones.Get[T](String url, Int32 timeOutCnx, String token).
URL: http://localhost:82/api/Log?groupedByCedis=False&cedisId=97&routeId=481&deliveryDate=2018-10-10
10/10/2018 08:39:43: Error_ApiConexiones.Get: Anulada la solicitud: Se excedió el tiempo de espera de la operación..
   en System.Net.HttpWebRequest.GetResponse()
   en GrupoGitLib.Model.DataAccess.ApiConexiones.Get[T](String url, Int32 timeOutCnx, String token).
URL: http://localhost:82/api/Log?groupedByCedis=False&cedisId=97&routeId=489&deliveryDate=2018-10-10
10/10/2018 08:39:44: Error_ApiConexiones.Get: Se excedió el tiempo de espera de la operación.
   en System.Net.HttpWebRequest.GetResponse()
   en GrupoGitLib.Model.DataAccess.ApiConexiones.Get[T](String url, Int32 timeOutCnx, String token).
URL: http://localhost:82/api/Log?groupedByCedis=False&cedisId=97&routeId=490&deliveryDate=2018-10-10
10/10/2018 08:39:45: Error_ApiConexiones.Get: Se excedió el tiempo de espera de la operación.
   en System.Net.HttpWebRequest.GetResponse()
   en GrupoGitLib.Model.DataAccess.ApiConexiones.Get[T](String url, Int32 timeOutCnx, String token).
URL: http://localhost:82/api/Log?groupedByCedis=False&cedisId=97&routeId=463&deliveryDate=2018-10-10
10/10/2018 08:39:46: Error_ApiConexiones.Get: Se excedió el tiempo de espera de la operación.
   en System.Net.HttpWebRequest.GetResponse()
   en GrupoGitLib.Model.DataAccess.ApiConexiones.Get[T](String url, Int32 timeOutCnx, String token).
URL: http://localhost:82/api/Log?groupedByCedis=False&cedisId=97&routeId=454&deliveryDate=2018-10-10
10/10/2018 08:39:47: Error_ApiConexiones.Get: Anulada la solicitud: Se excedió el tiempo de espera de la operación..
   en System.Net.HttpWebRequest.GetResponse()
   en GrupoGitLib.Model.DataAccess.ApiConexiones.Get[T](String url, Int32 timeOutCnx, String token).
URL: http://localhost:82/api/Log?groupedByCedis=False&cedisId=97&routeId=480&deliveryDate=2018-10-10
10/10/2018 08:39:48: Error_ApiConexiones.Get: Anulada la solicitud: Se excedió el tiempo de espera de la operación..
   en System.Net.HttpWebRequest.GetResponse()
   en GrupoGitLib.Model.DataAccess.ApiConexiones.Get[T](String url, Int32 timeOutCnx, String token).
URL: http://localhost:82/api/Log?groupedByCedis=False&cedisId=97&routeId=497&deliveryDate=2018-10-10
10/10/2018 08:39:49: Error_ApiConexiones.Get: Se excedió el tiempo de espera de la operación.
   en System.Net.HttpWebRequest.GetResponse()
   en GrupoGitLib.Model.DataAccess.ApiConexiones.Get[T](String url, Int32 timeOutCnx, String token).
URL: http://localhost:82/api/Log?groupedByCedis=False&cedisId=97&routeId=501&deliveryDate=2018-10-10
10/10/2018 08:39:52: Error_ApiConexiones.Post: Error en el servidor remoto: (500) Error interno del servidor..
   en System.Net.HttpWebRequest.GetResponse()
   en GrupoGitLib.Model.DataAccess.ApiConexiones.Post[T](String url, Int32 timeOutCnx, String json, String token).
URL: http://localhost:82/api/Log
10/10/2018 08:41:10: Error_ApiConexiones.Post: Anulada la solicitud: Se excedió el tiempo de espera de la operación..
   en System.Net.HttpWebRequest.GetResponse()
   en GrupoGitLib.Model.DataAccess.ApiConexiones.Post[T](String url, Int32 timeOutCnx, String json, String token).
URL: http://localhost:81/api/Inventario/TripInventory
10/10/2018 08:41:10: Error_ApiConexiones.Get: Anulada la solicitud: Se excedió el tiempo de espera de la operación..
   en System.Net.HttpWebRequest.GetResponse()
   en GrupoGitLib.Model.DataAccess.ApiConexiones.Get[T](String url, Int32 timeOutCnx, String token).
URL: http://localhost:82/api/Log?groupedByCedis=False&cedisId=97&routeId=479&deliveryDate=2018-10-10
10/10/2018 08:41:11: Error_ApiConexiones.Get: Anulada la solicitud: Se excedió el tiempo de espera de la operación..
   en System.Net.HttpWebRequest.GetResponse()
   en GrupoGitLib.Model.DataAccess.ApiConexiones.Get[T](String url, Int32 timeOutCnx, String token).
URL: http://localhost:82/api/Log?groupedByCedis=False&cedisId=97&routeId=459&deliveryDate=2018-10-10
10/10/2018 08:41:12: Error_ApiConexiones.Get: Anulada la solicitud: Se excedió el tiempo de espera de la operación..
   en System.Net.HttpWebRequest.GetResponse()
   en GrupoGitLib.Model.DataAccess.ApiConexiones.Get[T](String url, Int32 timeOutCnx, String token).
URL: http://localhost:82/api/Log?groupedByCedis=False&cedisId=97&routeId=481&deliveryDate=2018-10-10
10/10/2018 08:41:13: Error_ApiConexiones.Get: Anulada la solicitud: Se excedió el tiempo de espera de la operación..
   en System.Net.HttpWebRequest.GetResponse()
   en GrupoGitLib.Model.DataAccess.ApiConexiones.Get[T](String url, Int32 timeOutCnx, String token).
URL: http://localhost:82/api/Log?groupedByCedis=False&cedisId=97&routeId=489&deliveryDate=2018-10-10
10/10/2018 08:41:14: Error_ApiConexiones.Get: Anulada la solicitud: Se excedió el tiempo de espera de la operación..
   en System.Net.HttpWebRequest.GetResponse()
   en GrupoGitLib.Model.DataAccess.ApiConexiones.Get[T](String url, Int32 timeOutCnx, String token).
URL: http://localhost:82/api/Log?groupedByCedis=False&cedisId=97&routeId=490&deliveryDate=2018-10-10
10/10/2018 08:41:15: Error_ApiConexiones.Get: Anulada la solicitud: Se excedió el tiempo de espera de la operación..
   en System.Net.HttpWebRequest.GetResponse()
   en GrupoGitLib.Model.DataAccess.ApiConexiones.Get[T](String url, Int32 timeOutCnx, String token).
URL: http://localhost:82/api/Log?groupedByCedis=False&cedisId=97&routeId=463&deliveryDate=2018-10-10
10/10/2018 08:41:16: Error_ApiConexiones.Get: Anulada la solicitud: Se excedió el tiempo de espera de la operación..
   en System.Net.HttpWebRequest.GetResponse()
   en GrupoGitLib.Model.DataAccess.ApiConexiones.Get[T](String url, Int32 timeOutCnx, String token).
URL: http://localhost:82/api/Log?groupedByCedis=False&cedisId=97&routeId=454&deliveryDate=2018-10-10
10/10/2018 08:41:17: Error_ApiConexiones.Get: Se excedió el tiempo de espera de la operación.
   en System.Net.HttpWebRequest.GetResponse()
   en GrupoGitLib.Model.DataAccess.ApiConexiones.Get[T](String url, Int32 timeOutCnx, String token).
URL: http://localhost:82/api/Log?groupedByCedis=False&cedisId=97&routeId=480&deliveryDate=2018-10-10
10/10/2018 08:41:18: Error_ApiConexiones.Get: Anulada la solicitud: Se excedió el tiempo de espera de la operación..
   en System.Net.HttpWebRequest.GetResponse()
   en GrupoGitLib.Model.DataAccess.ApiConexiones.Get[T](String url, Int32 timeOutCnx, String token).
URL: http://localhost:82/api/Log?groupedByCedis=False&cedisId=97&routeId=497&deliveryDate=2018-10-10
10/10/2018 08:41:19: Error_ApiConexiones.Get: Anulada la solicitud: Se excedió el tiempo de espera de la operación..
   en System.Net.HttpWebRequest.GetResponse()
   en GrupoGitLib.Model.DataAccess.ApiConexiones.Get[T](String url, Int32 timeOutCnx, String token).
URL: http://localhost:82/api/Log?groupedByCedis=False&cedisId=97&routeId=501&deliveryDate=2018-10-10
10/10/2018 08:41:20: Error_ApiConexiones.Get: Anulada la solicitud: Se excedió el tiempo de espera de la operación..
   en System.Net.HttpWebRequest.GetResponse()
   en GrupoGitLib.Model.DataAccess.ApiConexiones.Get[T](String url, Int32 timeOutCnx, String token).
URL: http://localhost:82/api/Log?groupedByCedis=False&cedisId=97&routeId=535&deliveryDate=2018-10-10
10/10/2018 08:41:20: Error_ApiConexiones.Get: Se excedió el tiempo de espera de la operación.
   en System.Net.HttpWebRequest.GetResponse()
   en GrupoGitLib.Model.DataAccess.ApiConexiones.Get[T](String url, Int32 timeOutCnx, String token).
URL: http://localhost:82/api/Log?groupedByCedis=False&cedisId=97&routeId=536&deliveryDate=2018-10-10
10/10/2018 08:41:21: Error_ApiConexiones.Get: Se excedió el tiempo de espera de la operación.
   en System.Net.HttpWebRequest.GetResponse()
   en GrupoGitLib.Model.DataAccess.ApiConexiones.Get[T](String url, Int32 timeOutCnx, String token).
URL: http://localhost:82/api/Log?groupedByCedis=False&cedisId=97&routeId=451&deliveryDate=2018-10-10
10/10/2018 08:41:21: Error_ApiConexiones.Get: Anulada la solicitud: Se excedió el tiempo de espera de la operación..
   en System.Net.HttpWebRequest.GetResponse()
   en GrupoGitLib.Model.DataAccess.ApiConexiones.Get[T](String url, Int32 timeOutCnx, String token).
URL: http://localhost:82/api/Log?groupedByCedis=False&cedisId=97&routeId=482&deliveryDate=2018-10-10
10/10/2018 08:41:22: Error_ApiConexiones.Get: Se excedió el tiempo de espera de la operación.
   en System.Net.HttpWebRequest.GetResponse()
   en GrupoGitLib.Model.DataAccess.ApiConexiones.Get[T](String url, Int32 timeOutCnx, String token).
URL: http://localhost:82/api/Log?groupedByCedis=False&cedisId=97&routeId=494&deliveryDate=2018-10-10
10/10/2018 08:41:22: Error_ApiConexiones.Post: Anulada la solicitud: Se excedió el tiempo de espera de la operación..
   en System.Net.HttpWebRequest.GetResponse()
   en GrupoGitLib.Model.DataAccess.ApiConexiones.Post[T](String url, Int32 timeOutCnx, String json, String token).
URL: http://localhost:82/api/LogDetail
10/10/2018 08:41:23: Error_ApiConexiones.Get: Anulada la solicitud: Se excedió el tiempo de espera de la operación..
   en System.Net.HttpWebRequest.GetResponse()
   en GrupoGitLib.Model.DataAccess.ApiConexiones.Get[T](String url, Int32 timeOutCnx, String token).
URL: http://localhost:82/api/jornadasFinalizadas?cedisId=97&routeId=470&deliveryDate=2018-10-10
10/10/2018 08:41:23: Error_ApiConexiones.Post: Se excedió el tiempo de espera de la operación.
   en System.Net.HttpWebRequest.GetResponse()
   en GrupoGitLib.Model.DataAccess.ApiConexiones.Post[T](String url, Int32 timeOutCnx, String json, String token).
URL: http://localhost:82/api/LogDetail
10/10/2018 08:41:30: Error_ApiConexiones.Post: Error en el servidor remoto: (500) Error interno del servidor..
   en System.Net.HttpWebRequest.GetResponse()
   en GrupoGitLib.Model.DataAccess.ApiConexiones.Post[T](String url, Int32 timeOutCnx, String json, String token).
URL: http://localhost:82/api/Log
10/10/2018 08:42:41: Error_ApiConexiones.Post: Anulada la solicitud: Se excedió el tiempo de espera de la operación..
   en System.Net.HttpWebRequest.GetResponse()
   en GrupoGitLib.Model.DataAccess.ApiConexiones.Post[T](String url, Int32 timeOutCnx, String json, String token).
URL: http://localhost:81/api/Inventario/TripInventory
10/10/2018 08:42:41: Error_ApiConexiones.Post: Se excedió el tiempo de espera de la operación.
   en System.Net.HttpWebRequest.GetResponse()
   en GrupoGitLib.Model.DataAccess.ApiConexiones.Post[T](String url, Int32 timeOutCnx, String json, String token).
URL: http://localhost:81/api/Inventario/TripInventory
10/10/2018 08:42:42: Error_ApiConexiones.Post: Se excedió el tiempo de espera de la operación.
   en System.Net.HttpWebRequest.GetResponse()
   en GrupoGitLib.Model.DataAccess.ApiConexiones.Post[T](String url, Int32 timeOutCnx, String json, String token).
URL: http://localhost:81/api/Inventario/TripInventory
10/10/2018 08:42:43: Error_ApiConexiones.Post: Se excedió el tiempo de espera de la operación.
   en System.Net.HttpWebRequest.GetResponse()
   en GrupoGitLib.Model.DataAccess.ApiConexiones.Post[T](String url, Int32 timeOutCnx, String json, String token).
URL: http://localhost:81/api/Inventario/TripInventory
10/10/2018 08:42:44: Error_ApiConexiones.Post: Se excedió el tiempo de espera de la operación.
   en System.Net.HttpWebRequest.GetResponse()
   en GrupoGitLib.Model.DataAccess.ApiConexiones.Post[T](String url, Int32 timeOutCnx, String json, String token).
URL: http://localhost:81/api/Inventario/TripInventory
10/10/2018 08:42:45: Error_ApiConexiones.Post: Se excedió el tiempo de espera de la operación.
   en System.Net.HttpWebRequest.GetResponse()
   en GrupoGitLib.Model.DataAccess.ApiConexiones.Post[T](String url, Int32 timeOutCnx, String json, String token).
URL: http://localhost:81/api/Inventario/TripInventory
10/10/2018 08:42:46: Error_ApiConexiones.Post: Se excedió el tiempo de espera de la operación.
   en System.Net.HttpWebRequest.GetResponse()
   en GrupoGitLib.Model.DataAccess.ApiConexiones.Post[T](String url, Int32 timeOutCnx, String json, String token).
URL: http://localhost:81/api/Inventario/TripInventory
10/10/2018 08:42:47: Error_ApiConexiones.Post: Se excedió el tiempo de espera de la operación.
   en System.Net.HttpWebRequest.GetResponse()
   en GrupoGitLib.Model.DataAccess.ApiConexiones.Post[T](String url, Int32 timeOutCnx, String json, String token).
URL: http://localhost:81/api/Inventario/TripInventory
10/10/2018 08:42:48: Error_ApiConexiones.Post: Se excedió el tiempo de espera de la operación.
   en System.Net.HttpWebRequest.GetResponse()
   en GrupoGitLib.Model.DataAccess.ApiConexiones.Post[T](String url, Int32 timeOutCnx, String json, String token).
URL: http://localhost:81/api/Inventario/TripInventory
10/10/2018 08:42:49: Error_ApiConexiones.Post: Se excedió el tiempo de espera de la operación.
   en System.Net.HttpWebRequest.GetResponse()
   en GrupoGitLib.Model.DataAccess.ApiConexiones.Post[T](String url, Int32 timeOutCnx, String json, String token).
URL: http://localhost:81/api/Inventario/TripInventory
10/10/2018 08:42:50: Error_ApiConexiones.Post: Se excedió el tiempo de espera de la operación.
   en System.Net.HttpWebRequest.GetResponse()
   en GrupoGitLib.Model.DataAccess.ApiConexiones.Post[T](String url, Int32 timeOutCnx, String json, String token).
URL: http://localhost:81/api/Inventario/TripInventory
10/10/2018 08:42:51: Error_ApiConexiones.Post: Se excedió el tiempo de espera de la operación.
   en System.Net.HttpWebRequest.GetResponse()
   en GrupoGitLib.Model.DataAccess.ApiConexiones.Post[T](String url, Int32 timeOutCnx, String json, String token).
URL: http://localhost:81/api/Inventario/TripInventory
10/10/2018 08:42:51: Error_ApiConexiones.Post: Se excedió el tiempo de espera de la operación.
   en System.Net.HttpWebRequest.GetResponse()
   en GrupoGitLib.Model.DataAccess.ApiConexiones.Post[T](String url, Int32 timeOutCnx, String json, String token).
URL: http://localhost:81/api/Inventario/TripInventory
10/10/2018 08:42:51: Error_ApiConexiones.Post: Se excedió el tiempo de espera de la operación.
   en System.Net.HttpWebRequest.GetResponse()
   en GrupoGitLib.Model.DataAccess.ApiConexiones.Post[T](String url, Int32 timeOutCnx, String json, String token).
URL: http://localhost:81/api/Inventario/TripInventory
10/10/2018 08:42:52: Error_ApiConexiones.Post: Se excedió el tiempo de espera de la operación.
   en System.Net.HttpWebRequest.GetResponse()
   en GrupoGitLib.Model.DataAccess.ApiConexiones.Post[T](String url, Int32 timeOutCnx, String json, String token).
URL: http://localhost:81/api/Inventario/TripInventory
10/10/2018 08:42:52: Error_ApiConexiones.Get: Anulada la solicitud: Se excedió el tiempo de espera de la operación..
   en System.Net.HttpWebRequest.GetResponse()
   en GrupoGitLib.Model.DataAccess.ApiConexiones.Get[T](String url, Int32 timeOutCnx, String token).
URL: http://localhost:82/api/jornadasFinalizadas?cedisId=97&routeId=472&deliveryDate=2018-10-10
10/10/2018 08:42:53: Error_ApiConexiones.Get: Anulada la solicitud: Se excedió el tiempo de espera de la operación..
   en System.Net.HttpWebRequest.GetResponse()
   en GrupoGitLib.Model.DataAccess.ApiConexiones.Get[T](String url, Int32 timeOutCnx, String token).
URL: http://localhost:82/api/jornadasFinalizadas?cedisId=97&routeId=450&deliveryDate=2018-10-10
10/10/2018 08:43:00: Error_ApiConexiones.Get: Anulada la solicitud: Se excedió el tiempo de espera de la operación..
   en System.Net.HttpWebRequest.GetResponse()
   en GrupoGitLib.Model.DataAccess.ApiConexiones.Get[T](String url, Int32 timeOutCnx, String token).
URL: http://localhost:82/api/jornadasFinalizadas?cedisId=97&routeId=473&deliveryDate=2018-10-10
10/10/2018 08:43:10: Error_ApiConexiones.Post: Error en el servidor remoto: (500) Error interno del servidor..
   en System.Net.HttpWebRequest.GetResponse()
   en GrupoGitLib.Model.DataAccess.ApiConexiones.Post[T](String url, Int32 timeOutCnx, String json, String token).
URL: http://localhost:82/api/Log
10/10/2018 08:43:10: Error_ApiConexiones.Post: Error en el servidor remoto: (500) Error interno del servidor..
   en System.Net.HttpWebRequest.GetResponse()
   en GrupoGitLib.Model.DataAccess.ApiConexiones.Post[T](String url, Int32 timeOutCnx, String json, String token).
URL: http://localhost:82/api/Log
10/10/2018 08:43:11: Error_ApiConexiones.Post: Error en el servidor remoto: (500) Error interno del servidor..
   en System.Net.HttpWebRequest.GetResponse()
   en GrupoGitLib.Model.DataAccess.ApiConexiones.Post[T](String url, Int32 timeOutCnx, String json, String token).
URL: http://localhost:82/api/Log
10/10/2018 08:43:11: Error_ApiConexiones.Post: Error en el servidor remoto: (500) Error interno del servidor..
   en System.Net.HttpWebRequest.GetResponse()
   en GrupoGitLib.Model.DataAccess.ApiConexiones.Post[T](String url, Int32 timeOutCnx, String json, String token).
URL: http://localhost:82/api/Log
10/10/2018 08:43:11: Error_ApiConexiones.Post: Error en el servidor remoto: (500) Error interno del servidor..
   en System.Net.HttpWebRequest.GetResponse()
   en GrupoGitLib.Model.DataAccess.ApiConexiones.Post[T](String url, Int32 timeOutCnx, String json, String token).
URL: http://localhost:82/api/Log
10/10/2018 08:43:12: Error_ApiConexiones.Post: Error en el servidor remoto: (500) Error interno del servidor..
   en System.Net.HttpWebRequest.GetResponse()
   en GrupoGitLib.Model.DataAccess.ApiConexiones.Post[T](String url, Int32 timeOutCnx, String json, String token).
URL: http://localhost:82/api/Log
10/10/2018 08:43:12: Error_ApiConexiones.Post: Error en el servidor remoto: (500) Error interno del servidor..
   en System.Net.HttpWebRequest.GetResponse()
   en GrupoGitLib.Model.DataAccess.ApiConexiones.Post[T](String url, Int32 timeOutCnx, String json, String token).
URL: http://localhost:82/api/Log
10/10/2018 08:43:12: Error_ApiConexiones.Post: Error en el servidor remoto: (500) Error interno del servidor..
   en System.Net.HttpWebRequest.GetResponse()
   en GrupoGitLib.Model.DataAccess.ApiConexiones.Post[T](String url, Int32 timeOutCnx, String json, String token).
URL: http://localhost:82/api/Log
10/10/2018 08:43:13: Error_ApiConexiones.Post: Error en el servidor remoto: (500) Error interno del servidor..
   en System.Net.HttpWebRequest.GetResponse()
   en GrupoGitLib.Model.DataAccess.ApiConexiones.Post[T](String url, Int32 timeOutCnx, String json, String token).
URL: http://localhost:82/api/Log
10/10/2018 08:43:13: Error_ApiConexiones.Post: Error en el servidor remoto: (500) Error interno del servidor..
   en System.Net.HttpWebRequest.GetResponse()
   en GrupoGitLib.Model.DataAccess.ApiConexiones.Post[T](String url, Int32 timeOutCnx, String json, String token).
URL: http://localhost:82/api/Log
10/10/2018 08:43:13: Error_ApiConexiones.Post: Error en el servidor remoto: (500) Error interno del servidor..
   en System.Net.HttpWebRequest.GetResponse()
   en GrupoGitLib.Model.DataAccess.ApiConexiones.Post[T](String url, Int32 timeOutCnx, String json, String token).
URL: http://localhost:82/api/Log
10/10/2018 08:43:14: Error_ApiConexiones.Post: Error en el servidor remoto: (500) Error interno del servidor..
   en System.Net.HttpWebRequest.GetResponse()
   en GrupoGitLib.Model.DataAccess.ApiConexiones.Post[T](String url, Int32 timeOutCnx, String json, String token).
URL: http://localhost:82/api/Log
10/10/2018 08:43:14: Error_ApiConexiones.Post: Error en el servidor remoto: (500) Error interno del servidor..
   en System.Net.HttpWebRequest.GetResponse()
   en GrupoGitLib.Model.DataAccess.ApiConexiones.Post[T](String url, Int32 timeOutCnx, String json, String token).
URL: http://localhost:82/api/Log
10/10/2018 08:43:14: Error_ApiConexiones.Post: Error en el servidor remoto: (500) Error interno del servidor..
   en System.Net.HttpWebRequest.GetResponse()
   en GrupoGitLib.Model.DataAccess.ApiConexiones.Post[T](String url, Int32 timeOutCnx, String json, String token).
URL: http://localhost:82/api/Log
10/10/2018 08:43:14: Error_ApiConexiones.Post: Error en el servidor remoto: (500) Error interno del servidor..
   en System.Net.HttpWebRequest.GetResponse()
   en GrupoGitLib.Model.DataAccess.ApiConexiones.Post[T](String url, Int32 timeOutCnx, String json, String token).
URL: http://localhost:82/api/Log
10/10/2018 08:50:25: Error_ApiConexiones.Post: Anulada la solicitud: Se excedió el tiempo de espera de la operación..
   en System.Net.HttpWebRequest.GetResponse()
   en GrupoGitLib.Model.DataAccess.ApiConexiones.Post[T](String url, Int32 timeOutCnx, String json, String token).
URL: http://localhost:81/api/Inventario/TripInventory
10/10/2018 08:50:45: Error_ApiConexiones.Post: Anulada la solicitud: Se excedió el tiempo de espera de la operación..
   en System.Net.HttpWebRequest.GetResponse()
   en GrupoGitLib.Model.DataAccess.ApiConexiones.Post[T](String url, Int32 timeOutCnx, String json, String token).
URL: http://localhost:81/api/Inventario/TripInventory
10/10/2018 08:50:56: Error_ApiConexiones.Post: Error en el servidor remoto: (500) Error interno del servidor..
   en System.Net.HttpWebRequest.GetResponse()
   en GrupoGitLib.Model.DataAccess.ApiConexiones.Post[T](String url, Int32 timeOutCnx, String json, String token).
URL: http://localhost:82/api/Log
10/10/2018 08:50:56: Error_ApiConexiones.Post: Anulada la solicitud: Se excedió el tiempo de espera de la operación..
   en System.Net.HttpWebRequest.GetResponse()
   en GrupoGitLib.Model.DataAccess.ApiConexiones.Post[T](String url, Int32 timeOutCnx, String json, String token).
URL: http://localhost:81/api/Inventario/TripInventory
10/10/2018 08:50:57: Error_ApiConexiones.Post: Error en el servidor remoto: (500) Error interno del servidor..
   en System.Net.HttpWebRequest.GetResponse()
   en GrupoGitLib.Model.DataAccess.ApiConexiones.Post[T](String url, Int32 timeOutCnx, String json, String token).
URL: http://localhost:82/api/Log
10/10/2018 08:50:58: Error_ApiConexiones.Post: Error en el servidor remoto: (500) Error interno del servidor..
   en System.Net.HttpWebRequest.GetResponse()
   en GrupoGitLib.Model.DataAccess.ApiConexiones.Post[T](String url, Int32 timeOutCnx, String json, String token).
URL: http://localhost:82/api/Log
10/10/2018 08:50:58: Error_ApiConexiones.Post: Error en el servidor remoto: (500) Error interno del servidor..
   en System.Net.HttpWebRequest.GetResponse()
   en GrupoGitLib.Model.DataAccess.ApiConexiones.Post[T](String url, Int32 timeOutCnx, String json, String token).
URL: http://localhost:82/api/Log
10/10/2018 08:52:29: Error_ApiConexiones.Post: Anulada la solicitud: Se excedió el tiempo de espera de la operación..
   en System.Net.HttpWebRequest.GetResponse()
   en GrupoGitLib.Model.DataAccess.ApiConexiones.Post[T](String url, Int32 timeOutCnx, String json, String token).
URL: http://localhost:81/api/Inventario/TripInventory
10/10/2018 08:53:17: Error_ApiConexiones.Post: Anulada la solicitud: Se excedió el tiempo de espera de la operación..
   en System.Net.HttpWebRequest.GetResponse()
   en GrupoGitLib.Model.DataAccess.ApiConexiones.Post[T](String url, Int32 timeOutCnx, String json, String token).
URL: http://localhost:81/api/Inventario/TripInventory
10/10/2018 08:53:17: Error_ApiConexiones.Post: Anulada la solicitud: Se excedió el tiempo de espera de la operación..
   en System.Net.HttpWebRequest.GetResponse()
   en GrupoGitLib.Model.DataAccess.ApiConexiones.Post[T](String url, Int32 timeOutCnx, String json, String token).
URL: http://localhost:81/api/Inventario/TripInventory
10/10/2018 08:53:35: Error_ApiConexiones.Post: Error en el servidor remoto: (500) Error interno del servidor..
   en System.Net.HttpWebRequest.GetResponse()
   en GrupoGitLib.Model.DataAccess.ApiConexiones.Post[T](String url, Int32 timeOutCnx, String json, String token).
URL: http://localhost:82/api/Log
10/10/2018 08:53:35: Error_ApiConexiones.Post: Error en el servidor remoto: (500) Error interno del servidor..
   en System.Net.HttpWebRequest.GetResponse()
   en GrupoGitLib.Model.DataAccess.ApiConexiones.Post[T](String url, Int32 timeOutCnx, String json, String token).
URL: http://localhost:82/api/Log
10/10/2018 08:53:41: Error_ApiConexiones.Post: Error en el servidor remoto: (500) Error interno del servidor..
   en System.Net.HttpWebRequest.GetResponse()
   en GrupoGitLib.Model.DataAccess.ApiConexiones.Post[T](String url, Int32 timeOutCnx, String json, String token).
URL: http://localhost:82/api/Log
10/10/2018 08:53:41: Error_ApiConexiones.Post: Error en el servidor remoto: (500) Error interno del servidor..
   en System.Net.HttpWebRequest.GetResponse()
   en GrupoGitLib.Model.DataAccess.ApiConexiones.Post[T](String url, Int32 timeOutCnx, String json, String token).
URL: http://localhost:82/api/Log
10/10/2018 08:55:12: Error_ApiConexiones.Post: Anulada la solicitud: Se excedió el tiempo de espera de la operación..
   en System.Net.HttpWebRequest.GetResponse()
   en GrupoGitLib.Model.DataAccess.ApiConexiones.Post[T](String url, Int32 timeOutCnx, String json, String token).
URL: http://localhost:81/api/Inventario/TripInventory
10/10/2018 08:55:13: Error_ApiConexiones.Post: Anulada la solicitud: Se excedió el tiempo de espera de la operación..
   en System.Net.HttpWebRequest.GetResponse()
   en GrupoGitLib.Model.DataAccess.ApiConexiones.Post[T](String url, Int32 timeOutCnx, String json, String token).
URL: http://localhost:81/api/Inventario/TripInventory
10/10/2018 08:55:13: Error_ApiConexiones.Post: Anulada la solicitud: Se excedió el tiempo de espera de la operación..
   en System.Net.HttpWebRequest.GetResponse()
   en GrupoGitLib.Model.DataAccess.ApiConexiones.Post[T](String url, Int32 timeOutCnx, String json, String token).
URL: http://localhost:81/api/Inventario/TripInventory
10/10/2018 08:55:23: Error_ApiConexiones.Post: Error en el servidor remoto: (500) Error interno del servidor..
   en System.Net.HttpWebRequest.GetResponse()
   en GrupoGitLib.Model.DataAccess.ApiConexiones.Post[T](String url, Int32 timeOutCnx, String json, String token).
URL: http://localhost:82/api/Log
10/10/2018 08:55:24: Error_ApiConexiones.Post: Error en el servidor remoto: (500) Error interno del servidor..
   en System.Net.HttpWebRequest.GetResponse()
   en GrupoGitLib.Model.DataAccess.ApiConexiones.Post[T](String url, Int32 timeOutCnx, String json, String token).
URL: http://localhost:82/api/Log
10/10/2018 08:55:25: Error_ApiConexiones.Post: Error en el servidor remoto: (500) Error interno del servidor..
   en System.Net.HttpWebRequest.GetResponse()
   en GrupoGitLib.Model.DataAccess.ApiConexiones.Post[T](String url, Int32 timeOutCnx, String json, String token).
URL: http://localhost:82/api/Log
10/10/2018 08:55:27: Error_ApiConexiones.Post: Error en el servidor remoto: (500) Error interno del servidor..
   en System.Net.HttpWebRequest.GetResponse()
   en GrupoGitLib.Model.DataAccess.ApiConexiones.Post[T](String url, Int32 timeOutCnx, String json, String token).
URL: http://localhost:82/api/Log
10/10/2018 08:55:28: Error_ApiConexiones.Post: Error en el servidor remoto: (500) Error interno del servidor..
   en System.Net.HttpWebRequest.GetResponse()
   en GrupoGitLib.Model.DataAccess.ApiConexiones.Post[T](String url, Int32 timeOutCnx, String json, String token).
URL: http://localhost:82/api/Log
10/10/2018 08:57:08: Error_ApiConexiones.Post: Anulada la solicitud: Se excedió el tiempo de espera de la operación..
   en System.Net.HttpWebRequest.GetResponse()
   en GrupoGitLib.Model.DataAccess.ApiConexiones.Post[T](String url, Int32 timeOutCnx, String json, String token).
URL: http://localhost:81/api/Inventario/TripInventory
10/10/2018 08:57:09: Error_ApiConexiones.Post: Se excedió el tiempo de espera de la operación.
   en System.Net.HttpWebRequest.GetResponse()
   en GrupoGitLib.Model.DataAccess.ApiConexiones.Post[T](String url, Int32 timeOutCnx, String json, String token).
URL: http://localhost:81/api/Inventario/TripInventory
10/10/2018 08:57:10: Error_ApiConexiones.Post: Se excedió el tiempo de espera de la operación.
   en System.Net.HttpWebRequest.GetResponse()
   en GrupoGitLib.Model.DataAccess.ApiConexiones.Post[T](String url, Int32 timeOutCnx, String json, String token).
URL: http://localhost:81/api/Inventario/TripInventory
10/10/2018 08:57:10: Error_ApiConexiones.Post: Se excedió el tiempo de espera de la operación.
   en System.Net.HttpWebRequest.GetResponse()
   en GrupoGitLib.Model.DataAccess.ApiConexiones.Post[T](String url, Int32 timeOutCnx, String json, String token).
URL: http://localhost:81/api/Inventario/TripInventory
10/10/2018 08:57:14: Error_ApiConexiones.Post: Se excedió el tiempo de espera de la operación.
   en System.Net.HttpWebRequest.GetResponse()
   en GrupoGitLib.Model.DataAccess.ApiConexiones.Post[T](String url, Int32 timeOutCnx, String json, String token).
URL: http://localhost:81/api/Inventario/TripInventory
10/10/2018 08:57:20: Error_ApiConexiones.Post: Error en el servidor remoto: (500) Error interno del servidor..
   en System.Net.HttpWebRequest.GetResponse()
   en GrupoGitLib.Model.DataAccess.ApiConexiones.Post[T](String url, Int32 timeOutCnx, String json, String token).
URL: http://localhost:82/api/Log
10/10/2018 08:57:21: Error_ApiConexiones.Post: Error en el servidor remoto: (500) Error interno del servidor..
   en System.Net.HttpWebRequest.GetResponse()
   en GrupoGitLib.Model.DataAccess.ApiConexiones.Post[T](String url, Int32 timeOutCnx, String json, String token).
URL: http://localhost:82/api/Log
10/10/2018 08:57:21: Error_ApiConexiones.Post: Error en el servidor remoto: (500) Error interno del servidor..
   en System.Net.HttpWebRequest.GetResponse()
   en GrupoGitLib.Model.DataAccess.ApiConexiones.Post[T](String url, Int32 timeOutCnx, String json, String token).
URL: http://localhost:82/api/Log
10/10/2018 08:57:21: Error_ApiConexiones.Post: Error en el servidor remoto: (500) Error interno del servidor..
   en System.Net.HttpWebRequest.GetResponse()
   en GrupoGitLib.Model.DataAccess.ApiConexiones.Post[T](String url, Int32 timeOutCnx, String json, String token).
URL: http://localhost:82/api/Log
10/10/2018 08:57:21: Error_ApiConexiones.Post: Error en el servidor remoto: (500) Error interno del servidor..
   en System.Net.HttpWebRequest.GetResponse()
   en GrupoGitLib.Model.DataAccess.ApiConexiones.Post[T](String url, Int32 timeOutCnx, String json, String token).
URL: http://localhost:82/api/Log
10/10/2018 08:57:23: Error_ApiConexiones.Post: Error en el servidor remoto: (500) Error interno del servidor..
   en System.Net.HttpWebRequest.GetResponse()
   en GrupoGitLib.Model.DataAccess.ApiConexiones.Post[T](String url, Int32 timeOutCnx, String json, String token).
URL: http://localhost:82/api/Log
10/10/2018 08:58:35: Error_ApiConexiones.Post: Error en el servidor remoto: (500) Error interno del servidor..
   en System.Net.HttpWebRequest.GetResponse()
   en GrupoGitLib.Model.DataAccess.ApiConexiones.Post[T](String url, Int32 timeOutCnx, String json, String token).
URL: http://localhost:82/api/Log
10/10/2018 08:58:35: Error_ApiConexiones.Post: Error en el servidor remoto: (500) Error interno del servidor..
   en System.Net.HttpWebRequest.GetResponse()
   en GrupoGitLib.Model.DataAccess.ApiConexiones.Post[T](String url, Int32 timeOutCnx, String json, String token).
URL: http://localhost:82/api/Log
10/10/2018 08:58:36: Error_ApiConexiones.Post: Error en el servidor remoto: (500) Error interno del servidor..
   en System.Net.HttpWebRequest.GetResponse()
   en GrupoGitLib.Model.DataAccess.ApiConexiones.Post[T](String url, Int32 timeOutCnx, String json, String token).
URL: http://localhost:82/api/Log
10/10/2018 08:58:36: Error_ApiConexiones.Post: Error en el servidor remoto: (500) Error interno del servidor..
   en System.Net.HttpWebRequest.GetResponse()
   en GrupoGitLib.Model.DataAccess.ApiConexiones.Post[T](String url, Int32 timeOutCnx, String json, String token).
URL: http://localhost:82/api/Log
10/10/2018 09:01:55: Error_ApiConexiones.Post: Error en el servidor remoto: (500) Error interno del servidor..
   en System.Net.HttpWebRequest.GetResponse()
   en GrupoGitLib.Model.DataAccess.ApiConexiones.Post[T](String url, Int32 timeOutCnx, String json, String token).
URL: http://localhost:82/api/Log
10/10/2018 09:01:56: Error_ApiConexiones.Post: Error en el servidor remoto: (500) Error interno del servidor..
   en System.Net.HttpWebRequest.GetResponse()
   en GrupoGitLib.Model.DataAccess.ApiConexiones.Post[T](String url, Int32 timeOutCnx, String json, String token).
URL: http://localhost:82/api/Log
10/10/2018 09:01:56: Error_ApiConexiones.Post: Error en el servidor remoto: (500) Error interno del servidor..
   en System.Net.HttpWebRequest.GetResponse()
   en GrupoGitLib.Model.DataAccess.ApiConexiones.Post[T](String url, Int32 timeOutCnx, String json, String token).
URL: http://localhost:82/api/Log
10/10/2018 09:01:56: Error_ApiConexiones.Post: Error en el servidor remoto: (500) Error interno del servidor..
   en System.Net.HttpWebRequest.GetResponse()
   en GrupoGitLib.Model.DataAccess.ApiConexiones.Post[T](String url, Int32 timeOutCnx, String json, String token).
URL: http://localhost:82/api/Log
10/10/2018 09:01:57: Error_ApiConexiones.Post: Error en el servidor remoto: (500) Error interno del servidor..
   en System.Net.HttpWebRequest.GetResponse()
   en GrupoGitLib.Model.DataAccess.ApiConexiones.Post[T](String url, Int32 timeOutCnx, String json, String token).
URL: http://localhost:82/api/Log
10/10/2018 09:01:57: Error_ApiConexiones.Post: Error en el servidor remoto: (500) Error interno del servidor..
   en System.Net.HttpWebRequest.GetResponse()
   en GrupoGitLib.Model.DataAccess.ApiConexiones.Post[T](String url, Int32 timeOutCnx, String json, String token).
URL: http://localhost:82/api/Log
10/10/2018 09:01:57: Error_ApiConexiones.Post: Error en el servidor remoto: (500) Error interno del servidor..
   en System.Net.HttpWebRequest.GetResponse()
   en GrupoGitLib.Model.DataAccess.ApiConexiones.Post[T](String url, Int32 timeOutCnx, String json, String token).
URL: http://localhost:82/api/Log
10/10/2018 09:01:58: Error_ApiConexiones.Post: Error en el servidor remoto: (500) Error interno del servidor..
   en System.Net.HttpWebRequest.GetResponse()
   en GrupoGitLib.Model.DataAccess.ApiConexiones.Post[T](String url, Int32 timeOutCnx, String json, String token).
URL: http://localhost:82/api/Log
10/10/2018 09:02:52: Error_ApiConexiones.Post: Error en el servidor remoto: (500) Error interno del servidor..
   en System.Net.HttpWebRequest.GetResponse()
   en GrupoGitLib.Model.DataAccess.ApiConexiones.Post[T](String url, Int32 timeOutCnx, String json, String token).
URL: http://localhost:82/api/Log
10/10/2018 09:02:52: Error_ApiConexiones.Post: Error en el servidor remoto: (500) Error interno del servidor..
   en System.Net.HttpWebRequest.GetResponse()
   en GrupoGitLib.Model.DataAccess.ApiConexiones.Post[T](String url, Int32 timeOutCnx, String json, String token).
URL: http://localhost:82/api/Log
10/10/2018 09:02:53: Error_ApiConexiones.Post: Error en el servidor remoto: (500) Error interno del servidor..
   en System.Net.HttpWebRequest.GetResponse()
   en GrupoGitLib.Model.DataAccess.ApiConexiones.Post[T](String url, Int32 timeOutCnx, String json, String token).
URL: http://localhost:82/api/Log
10/10/2018 09:02:53: Error_ApiConexiones.Post: Error en el servidor remoto: (500) Error interno del servidor..
   en System.Net.HttpWebRequest.GetResponse()
   en GrupoGitLib.Model.DataAccess.ApiConexiones.Post[T](String url, Int32 timeOutCnx, String json, String token).
URL: http://localhost:82/api/Log
10/10/2018 09:03:19: Error_ApiConexiones.Post: Error en el servidor remoto: (500) Error interno del servidor..
   en System.Net.HttpWebRequest.GetResponse()
   en GrupoGitLib.Model.DataAccess.ApiConexiones.Post[T](String url, Int32 timeOutCnx, String json, String token).
URL: http://localhost:82/api/Log
10/10/2018 09:03:20: Error_ApiConexiones.Post: Error en el servidor remoto: (500) Error interno del servidor..
   en System.Net.HttpWebRequest.GetResponse()
   en GrupoGitLib.Model.DataAccess.ApiConexiones.Post[T](String url, Int32 timeOutCnx, String json, String token).
URL: http://localhost:82/api/Log
10/10/2018 09:03:20: Error_ApiConexiones.Post: Error en el servidor remoto: (500) Error interno del servidor..
   en System.Net.HttpWebRequest.GetResponse()
   en GrupoGitLib.Model.DataAccess.ApiConexiones.Post[T](String url, Int32 timeOutCnx, String json, String token).
URL: http://localhost:82/api/Log
10/10/2018 09:03:20: Error_ApiConexiones.Post: Error en el servidor remoto: (500) Error interno del servidor..
   en System.Net.HttpWebRequest.GetResponse()
   en GrupoGitLib.Model.DataAccess.ApiConexiones.Post[T](String url, Int32 timeOutCnx, String json, String token).
URL: http://localhost:82/api/Log
10/10/2018 09:03:21: Error_ApiConexiones.Post: Error en el servidor remoto: (500) Error interno del servidor..
   en System.Net.HttpWebRequest.GetResponse()
   en GrupoGitLib.Model.DataAccess.ApiConexiones.Post[T](String url, Int32 timeOutCnx, String json, String token).
URL: http://localhost:82/api/Log
10/10/2018 09:03:21: Error_ApiConexiones.Post: Error en el servidor remoto: (500) Error interno del servidor..
   en System.Net.HttpWebRequest.GetResponse()
   en GrupoGitLib.Model.DataAccess.ApiConexiones.Post[T](String url, Int32 timeOutCnx, String json, String token).
URL: http://localhost:82/api/Log
10/10/2018 09:03:21: Error_ApiConexiones.Post: Error en el servidor remoto: (500) Error interno del servidor..
   en System.Net.HttpWebRequest.GetResponse()
   en GrupoGitLib.Model.DataAccess.ApiConexiones.Post[T](String url, Int32 timeOutCnx, String json, String token).
URL: http://localhost:82/api/Log
10/10/2018 09:03:22: Error_ApiConexiones.Post: Error en el servidor remoto: (500) Error interno del servidor..
   en System.Net.HttpWebRequest.GetResponse()
   en GrupoGitLib.Model.DataAccess.ApiConexiones.Post[T](String url, Int32 timeOutCnx, String json, String token).
URL: http://localhost:82/api/Log
10/10/2018 09:03:42: Error_ApiConexiones.Post: Error en el servidor remoto: (500) Error interno del servidor..
   en System.Net.HttpWebRequest.GetResponse()
   en GrupoGitLib.Model.DataAccess.ApiConexiones.Post[T](String url, Int32 timeOutCnx, String json, String token).
URL: http://localhost:82/api/Log
10/10/2018 09:03:42: Error_ApiConexiones.Post: Error en el servidor remoto: (500) Error interno del servidor..
   en System.Net.HttpWebRequest.GetResponse()
   en GrupoGitLib.Model.DataAccess.ApiConexiones.Post[T](String url, Int32 timeOutCnx, String json, String token).
URL: http://localhost:82/api/Log
10/10/2018 09:03:43: Error_ApiConexiones.Post: Error en el servidor remoto: (500) Error interno del servidor..
   en System.Net.HttpWebRequest.GetResponse()
   en GrupoGitLib.Model.DataAccess.ApiConexiones.Post[T](String url, Int32 timeOutCnx, String json, String token).
URL: http://localhost:82/api/Log
10/10/2018 09:03:43: Error_ApiConexiones.Post: Error en el servidor remoto: (500) Error interno del servidor..
   en System.Net.HttpWebRequest.GetResponse()
   en GrupoGitLib.Model.DataAccess.ApiConexiones.Post[T](String url, Int32 timeOutCnx, String json, String token).
URL: http://localhost:82/api/Log
10/10/2018 09:03:43: Error_ApiConexiones.Post: Error en el servidor remoto: (500) Error interno del servidor..
   en System.Net.HttpWebRequest.GetResponse()
   en GrupoGitLib.Model.DataAccess.ApiConexiones.Post[T](String url, Int32 timeOutCnx, String json, String token).
URL: http://localhost:82/api/Log
10/10/2018 09:03:44: Error_ApiConexiones.Post: Error en el servidor remoto: (500) Error interno del servidor..
   en System.Net.HttpWebRequest.GetResponse()
   en GrupoGitLib.Model.DataAccess.ApiConexiones.Post[T](String url, Int32 timeOutCnx, String json, String token).
URL: http://localhost:82/api/Log
10/10/2018 09:03:44: Error_ApiConexiones.Post: Error en el servidor remoto: (500) Error interno del servidor..
   en System.Net.HttpWebRequest.GetResponse()
   en GrupoGitLib.Model.DataAccess.ApiConexiones.Post[T](String url, Int32 timeOutCnx, String json, String token).
URL: http://localhost:82/api/Log
10/10/2018 09:03:44: Error_ApiConexiones.Post: Error en el servidor remoto: (500) Error interno del servidor..
   en System.Net.HttpWebRequest.GetResponse()
   en GrupoGitLib.Model.DataAccess.ApiConexiones.Post[T](String url, Int32 timeOutCnx, String json, String token).
URL: http://localhost:82/api/Log
10/10/2018 09:04:27: Error_ApiConexiones.Post: Error en el servidor remoto: (500) Error interno del servidor..
   en System.Net.HttpWebRequest.GetResponse()
   en GrupoGitLib.Model.DataAccess.ApiConexiones.Post[T](String url, Int32 timeOutCnx, String json, String token).
URL: http://localhost:82/api/Log
10/10/2018 09:04:28: Error_ApiConexiones.Post: Error en el servidor remoto: (500) Error interno del servidor..
   en System.Net.HttpWebRequest.GetResponse()
   en GrupoGitLib.Model.DataAccess.ApiConexiones.Post[T](String url, Int32 timeOutCnx, String json, String token).
URL: http://localhost:82/api/Log
10/10/2018 09:04:28: Error_ApiConexiones.Post: Error en el servidor remoto: (500) Error interno del servidor..
   en System.Net.HttpWebRequest.GetResponse()
   en GrupoGitLib.Model.DataAccess.ApiConexiones.Post[T](String url, Int32 timeOutCnx, String json, String token).
URL: http://localhost:82/api/Log
10/10/2018 09:04:28: Error_ApiConexiones.Post: Error en el servidor remoto: (500) Error interno del servidor..
   en System.Net.HttpWebRequest.GetResponse()
   en GrupoGitLib.Model.DataAccess.ApiConexiones.Post[T](String url, Int32 timeOutCnx, String json, String token).
URL: http://localhost:82/api/Log
10/10/2018 09:04:58: Error_ApiConexiones.Post: Error en el servidor remoto: (500) Error interno del servidor..
   en System.Net.HttpWebRequest.GetResponse()
   en GrupoGitLib.Model.DataAccess.ApiConexiones.Post[T](String url, Int32 timeOutCnx, String json, String token).
URL: http://localhost:82/api/Log
10/10/2018 09:04:59: Error_ApiConexiones.Post: Error en el servidor remoto: (500) Error interno del servidor..
   en System.Net.HttpWebRequest.GetResponse()
   en GrupoGitLib.Model.DataAccess.ApiConexiones.Post[T](String url, Int32 timeOutCnx, String json, String token).
URL: http://localhost:82/api/Log
10/10/2018 09:04:59: Error_ApiConexiones.Post: Error en el servidor remoto: (500) Error interno del servidor..
   en System.Net.HttpWebRequest.GetResponse()
   en GrupoGitLib.Model.DataAccess.ApiConexiones.Post[T](String url, Int32 timeOutCnx, String json, String token).
URL: http://localhost:82/api/Log
10/10/2018 09:04:59: Error_ApiConexiones.Post: Error en el servidor remoto: (500) Error interno del servidor..
   en System.Net.HttpWebRequest.GetResponse()
   en GrupoGitLib.Model.DataAccess.ApiConexiones.Post[T](String url, Int32 timeOutCnx, String json, String token).
URL: http://localhost:82/api/Log
10/10/2018 09:05:00: Error_ApiConexiones.Post: Error en el servidor remoto: (500) Error interno del servidor..
   en System.Net.HttpWebRequest.GetResponse()
   en GrupoGitLib.Model.DataAccess.ApiConexiones.Post[T](String url, Int32 timeOutCnx, String json, String token).
URL: http://localhost:82/api/Log
10/10/2018 09:05:00: Error_ApiConexiones.Post: Error en el servidor remoto: (500) Error interno del servidor..
   en System.Net.HttpWebRequest.GetResponse()
   en GrupoGitLib.Model.DataAccess.ApiConexiones.Post[T](String url, Int32 timeOutCnx, String json, String token).
URL: http://localhost:82/api/Log
10/10/2018 09:05:00: Error_ApiConexiones.Post: Error en el servidor remoto: (500) Error interno del servidor..
   en System.Net.HttpWebRequest.GetResponse()
   en GrupoGitLib.Model.DataAccess.ApiConexiones.Post[T](String url, Int32 timeOutCnx, String json, String token).
URL: http://localhost:82/api/Log
10/10/2018 09:05:01: Error_ApiConexiones.Post: Error en el servidor remoto: (500) Error interno del servidor..
   en System.Net.HttpWebRequest.GetResponse()
   en GrupoGitLib.Model.DataAccess.ApiConexiones.Post[T](String url, Int32 timeOutCnx, String json, String token).
URL: http://localhost:82/api/Log
10/10/2018 09:05:27: Error_ApiConexiones.Post: Error en el servidor remoto: (500) Error interno del servidor..
   en System.Net.HttpWebRequest.GetResponse()
   en GrupoGitLib.Model.DataAccess.ApiConexiones.Post[T](String url, Int32 timeOutCnx, String json, String token).
URL: http://localhost:82/api/Log
10/10/2018 09:05:27: Error_ApiConexiones.Post: Error en el servidor remoto: (500) Error interno del servidor..
   en System.Net.HttpWebRequest.GetResponse()
   en GrupoGitLib.Model.DataAccess.ApiConexiones.Post[T](String url, Int32 timeOutCnx, String json, String token).
URL: http://localhost:82/api/Log
10/10/2018 09:05:28: Error_ApiConexiones.Post: Error en el servidor remoto: (500) Error interno del servidor..
   en System.Net.HttpWebRequest.GetResponse()
   en GrupoGitLib.Model.DataAccess.ApiConexiones.Post[T](String url, Int32 timeOutCnx, String json, String token).
URL: http://localhost:82/api/Log
10/10/2018 09:05:28: Error_ApiConexiones.Post: Error en el servidor remoto: (500) Error interno del servidor..
   en System.Net.HttpWebRequest.GetResponse()
   en GrupoGitLib.Model.DataAccess.ApiConexiones.Post[T](String url, Int32 timeOutCnx, String json, String token).
URL: http://localhost:82/api/Log
10/10/2018 09:05:53: Error_ApiConexiones.Post: Error en el servidor remoto: (500) Error interno del servidor..
   en System.Net.HttpWebRequest.GetResponse()
   en GrupoGitLib.Model.DataAccess.ApiConexiones.Post[T](String url, Int32 timeOutCnx, String json, String token).
URL: http://localhost:82/api/Log
10/10/2018 09:05:54: Error_ApiConexiones.Post: Error en el servidor remoto: (500) Error interno del servidor..
   en System.Net.HttpWebRequest.GetResponse()
   en GrupoGitLib.Model.DataAccess.ApiConexiones.Post[T](String url, Int32 timeOutCnx, String json, String token).
URL: http://localhost:82/api/Log
10/10/2018 09:06:24: Error_ApiConexiones.Post: Error en el servidor remoto: (500) Error interno del servidor..
   en System.Net.HttpWebRequest.GetResponse()
   en GrupoGitLib.Model.DataAccess.ApiConexiones.Post[T](String url, Int32 timeOutCnx, String json, String token).
URL: http://localhost:82/api/Log
10/10/2018 09:06:24: Error_ApiConexiones.Post: Error en el servidor remoto: (500) Error interno del servidor..
   en System.Net.HttpWebRequest.GetResponse()
   en GrupoGitLib.Model.DataAccess.ApiConexiones.Post[T](String url, Int32 timeOutCnx, String json, String token).
URL: http://localhost:82/api/Log
10/10/2018 09:06:24: Error_ApiConexiones.Post: Error en el servidor remoto: (500) Error interno del servidor..
   en System.Net.HttpWebRequest.GetResponse()
   en GrupoGitLib.Model.DataAccess.ApiConexiones.Post[T](String url, Int32 timeOutCnx, String json, String token).
URL: http://localhost:82/api/Log
10/10/2018 09:06:24: Error_ApiConexiones.Post: Error en el servidor remoto: (500) Error interno del servidor..
   en System.Net.HttpWebRequest.GetResponse()
   en GrupoGitLib.Model.DataAccess.ApiConexiones.Post[T](String url, Int32 timeOutCnx, String json, String token).
URL: http://localhost:82/api/Log
10/10/2018 09:06:56: Error_ApiConexiones.Post: Error en el servidor remoto: (500) Error interno del servidor..
   en System.Net.HttpWebRequest.GetResponse()
   en GrupoGitLib.Model.DataAccess.ApiConexiones.Post[T](String url, Int32 timeOutCnx, String json, String token).
URL: http://localhost:82/api/Log
10/10/2018 09:06:56: Error_ApiConexiones.Post: Error en el servidor remoto: (500) Error interno del servidor..
   en System.Net.HttpWebRequest.GetResponse()
   en GrupoGitLib.Model.DataAccess.ApiConexiones.Post[T](String url, Int32 timeOutCnx, String json, String token).
URL: http://localhost:82/api/Log
10/10/2018 09:07:19: Error_ApiConexiones.Post: Error en el servidor remoto: (500) Error interno del servidor..
   en System.Net.HttpWebRequest.GetResponse()
   en GrupoGitLib.Model.DataAccess.ApiConexiones.Post[T](String url, Int32 timeOutCnx, String json, String token).
URL: http://localhost:82/api/Log
10/10/2018 09:07:19: Error_ApiConexiones.Post: Error en el servidor remoto: (500) Error interno del servidor..
   en System.Net.HttpWebRequest.GetResponse()
   en GrupoGitLib.Model.DataAccess.ApiConexiones.Post[T](String url, Int32 timeOutCnx, String json, String token).
URL: http://localhost:82/api/Log
10/10/2018 09:07:49: Error_ApiConexiones.Post: Error en el servidor remoto: (500) Error interno del servidor..
   en System.Net.HttpWebRequest.GetResponse()
   en GrupoGitLib.Model.DataAccess.ApiConexiones.Post[T](String url, Int32 timeOutCnx, String json, String token).
URL: http://localhost:82/api/Log
10/10/2018 09:07:49: Error_ApiConexiones.Post: Error en el servidor remoto: (500) Error interno del servidor..
   en System.Net.HttpWebRequest.GetResponse()
   en GrupoGitLib.Model.DataAccess.ApiConexiones.Post[T](String url, Int32 timeOutCnx, String json, String token).
URL: http://localhost:82/api/Log
10/10/2018 09:07:50: Error_ApiConexiones.Post: Error en el servidor remoto: (500) Error interno del servidor..
   en System.Net.HttpWebRequest.GetResponse()
   en GrupoGitLib.Model.DataAccess.ApiConexiones.Post[T](String url, Int32 timeOutCnx, String json, String token).
URL: http://localhost:82/api/Log
10/10/2018 09:07:50: Error_ApiConexiones.Post: Error en el servidor remoto: (500) Error interno del servidor..
   en System.Net.HttpWebRequest.GetResponse()
   en GrupoGitLib.Model.DataAccess.ApiConexiones.Post[T](String url, Int32 timeOutCnx, String json, String token).
URL: http://localhost:82/api/Log
10/10/2018 09:07:51: Error_ApiConexiones.Post: Error en el servidor remoto: (500) Error interno del servidor..
   en System.Net.HttpWebRequest.GetResponse()
   en GrupoGitLib.Model.DataAccess.ApiConexiones.Post[T](String url, Int32 timeOutCnx, String json, String token).
URL: http://localhost:82/api/Log
10/10/2018 09:07:51: Error_ApiConexiones.Post: Error en el servidor remoto: (500) Error interno del servidor..
   en System.Net.HttpWebRequest.GetResponse()
   en GrupoGitLib.Model.DataAccess.ApiConexiones.Post[T](String url, Int32 timeOutCnx, String json, String token).
URL: http://localhost:82/api/Log
10/10/2018 09:07:51: Error_ApiConexiones.Post: Error en el servidor remoto: (500) Error interno del servidor..
   en System.Net.HttpWebRequest.GetResponse()
   en GrupoGitLib.Model.DataAccess.ApiConexiones.Post[T](String url, Int32 timeOutCnx, String json, String token).
URL: http://localhost:82/api/Log
10/10/2018 09:07:52: Error_ApiConexiones.Post: Error en el servidor remoto: (500) Error interno del servidor..
   en System.Net.HttpWebRequest.GetResponse()
   en GrupoGitLib.Model.DataAccess.ApiConexiones.Post[T](String url, Int32 timeOutCnx, String json, String token).
URL: http://localhost:82/api/Log
10/10/2018 09:08:26: Error_ApiConexiones.Post: Error en el servidor remoto: (500) Error interno del servidor..
   en System.Net.HttpWebRequest.GetResponse()
   en GrupoGitLib.Model.DataAccess.ApiConexiones.Post[T](String url, Int32 timeOutCnx, String json, String token).
URL: http://localhost:82/api/Log
10/10/2018 09:08:26: Error_ApiConexiones.Post: Error en el servidor remoto: (500) Error interno del servidor..
   en System.Net.HttpWebRequest.GetResponse()
   en GrupoGitLib.Model.DataAccess.ApiConexiones.Post[T](String url, Int32 timeOutCnx, String json, String token).
URL: http://localhost:82/api/Log
10/10/2018 09:08:27: Error_ApiConexiones.Post: Error en el servidor remoto: (500) Error interno del servidor..
   en System.Net.HttpWebRequest.GetResponse()
   en GrupoGitLib.Model.DataAccess.ApiConexiones.Post[T](String url, Int32 timeOutCnx, String json, String token).
URL: http://localhost:82/api/Log
10/10/2018 09:08:27: Error_ApiConexiones.Post: Error en el servidor remoto: (500) Error interno del servidor..
   en System.Net.HttpWebRequest.GetResponse()
   en GrupoGitLib.Model.DataAccess.ApiConexiones.Post[T](String url, Int32 timeOutCnx, String json, String token).
URL: http://localhost:82/api/Log
10/10/2018 09:08:58: Error_ApiConexiones.Post: Error en el servidor remoto: (500) Error interno del servidor..
   en System.Net.HttpWebRequest.GetResponse()
   en GrupoGitLib.Model.DataAccess.ApiConexiones.Post[T](String url, Int32 timeOutCnx, String json, String token).
URL: http://localhost:82/api/Log
10/10/2018 09:08:58: Error_ApiConexiones.Post: Error en el servidor remoto: (500) Error interno del servidor..
   en System.Net.HttpWebRequest.GetResponse()
   en GrupoGitLib.Model.DataAccess.ApiConexiones.Post[T](String url, Int32 timeOutCnx, String json, String token).
URL: http://localhost:82/api/Log
10/10/2018 09:08:59: Error_ApiConexiones.Post: Error en el servidor remoto: (500) Error interno del servidor..
   en System.Net.HttpWebRequest.GetResponse()
   en GrupoGitLib.Model.DataAccess.ApiConexiones.Post[T](String url, Int32 timeOutCnx, String json, String token).
URL: http://localhost:82/api/Log
10/10/2018 09:08:59: Error_ApiConexiones.Post: Error en el servidor remoto: (500) Error interno del servidor..
   en System.Net.HttpWebRequest.GetResponse()
   en GrupoGitLib.Model.DataAccess.ApiConexiones.Post[T](String url, Int32 timeOutCnx, String json, String token).
URL: http://localhost:82/api/Log
10/10/2018 09:09:17: Error_ApiConexiones.Post: Error en el servidor remoto: (500) Error interno del servidor..
   en System.Net.HttpWebRequest.GetResponse()
   en GrupoGitLib.Model.DataAccess.ApiConexiones.Post[T](String url, Int32 timeOutCnx, String json, String token).
URL: http://localhost:82/api/Log
10/10/2018 09:09:17: Error_ApiConexiones.Post: Error en el servidor remoto: (500) Error interno del servidor..
   en System.Net.HttpWebRequest.GetResponse()
   en GrupoGitLib.Model.DataAccess.ApiConexiones.Post[T](String url, Int32 timeOutCnx, String json, String token).
URL: http://localhost:82/api/Log
10/10/2018 09:09:18: Error_ApiConexiones.Post: Error en el servidor remoto: (500) Error interno del servidor..
   en System.Net.HttpWebRequest.GetResponse()
   en GrupoGitLib.Model.DataAccess.ApiConexiones.Post[T](String url, Int32 timeOutCnx, String json, String token).
URL: http://localhost:82/api/Log
10/10/2018 09:09:18: Error_ApiConexiones.Post: Error en el servidor remoto: (500) Error interno del servidor..
   en System.Net.HttpWebRequest.GetResponse()
   en GrupoGitLib.Model.DataAccess.ApiConexiones.Post[T](String url, Int32 timeOutCnx, String json, String token).
URL: http://localhost:82/api/Log
10/10/2018 09:09:18: Error_ApiConexiones.Post: Error en el servidor remoto: (500) Error interno del servidor..
   en System.Net.HttpWebRequest.GetResponse()
   en GrupoGitLib.Model.DataAccess.ApiConexiones.Post[T](String url, Int32 timeOutCnx, String json, String token).
URL: http://localhost:82/api/Log
10/10/2018 09:09:18: Error_ApiConexiones.Post: Error en el servidor remoto: (500) Error interno del servidor..
   en System.Net.HttpWebRequest.GetResponse()
   en GrupoGitLib.Model.DataAccess.ApiConexiones.Post[T](String url, Int32 timeOutCnx, String json, String token).
URL: http://localhost:82/api/Log
10/10/2018 09:09:19: Error_ApiConexiones.Post: Error en el servidor remoto: (500) Error interno del servidor..
   en System.Net.HttpWebRequest.GetResponse()
   en GrupoGitLib.Model.DataAccess.ApiConexiones.Post[T](String url, Int32 timeOutCnx, String json, String token).
URL: http://localhost:82/api/Log
10/10/2018 09:09:19: Error_ApiConexiones.Post: Error en el servidor remoto: (500) Error interno del servidor..
   en System.Net.HttpWebRequest.GetResponse()
   en GrupoGitLib.Model.DataAccess.ApiConexiones.Post[T](String url, Int32 timeOutCnx, String json, String token).
URL: http://localhost:82/api/Log
10/10/2018 09:10:11: Error_ApiConexiones.Post: Error en el servidor remoto: (500) Error interno del servidor..
   en System.Net.HttpWebRequest.GetResponse()
   en GrupoGitLib.Model.DataAccess.ApiConexiones.Post[T](String url, Int32 timeOutCnx, String json, String token).
URL: http://localhost:82/api/Log
10/10/2018 09:10:13: Error_ApiConexiones.Post: Error en el servidor remoto: (500) Error interno del servidor..
   en System.Net.HttpWebRequest.GetResponse()
   en GrupoGitLib.Model.DataAccess.ApiConexiones.Post[T](String url, Int32 timeOutCnx, String json, String token).
URL: http://localhost:82/api/Log
