10/18/2018 09:30:52: Error_ApiConexiones.Post: Error en el servidor remoto: (500) Error interno del servidor..
   en System.Net.HttpWebRequest.GetResponse()
   en GrupoGitLib.Model.DataAccess.ApiConexiones.Post[T](String url, Int32 timeOutCnx, String json, String token).
URL: http://localhost:82/api/inventario
10/18/2018 09:31:32: Error_ApiConexiones.Get: Error en el servidor remoto: (500) Error interno del servidor..
   en System.Net.HttpWebRequest.GetResponse()
   en GrupoGitLib.Model.DataAccess.ApiConexiones.Get[T](String url, Int32 timeOutCnx, String token).
URL: http://localhost:82/api/Log?groupedByCedis=False&cedisId=97&routeId=494&deliveryDate=2018-10-18
10/18/2018 09:32:24: Error_ApiConexiones.Post: Error en el servidor remoto: (500) Error interno del servidor..
   en System.Net.HttpWebRequest.GetResponse()
   en GrupoGitLib.Model.DataAccess.ApiConexiones.Post[T](String url, Int32 timeOutCnx, String json, String token).
URL: http://localhost:82/api/inventario
10/18/2018 09:41:33: Error_ApiConexiones.Get: Error en el servidor remoto: (500) Error interno del servidor..
   en System.Net.HttpWebRequest.GetResponse()
   en GrupoGitLib.Model.DataAccess.ApiConexiones.Get[T](String url, Int32 timeOutCnx, String token).
URL: http://localhost:82/api/Log?groupedByCedis=False&cedisId=97&routeId=494&deliveryDate=2018-10-18
10/18/2018 09:41:52: Error_ApiConexiones.Get: Error en el servidor remoto: (500) Error interno del servidor..
   en System.Net.HttpWebRequest.GetResponse()
   en GrupoGitLib.Model.DataAccess.ApiConexiones.Get[T](String url, Int32 timeOutCnx, String token).
URL: http://localhost:82/api/Log?groupedByCedis=False&cedisId=97&routeId=494&deliveryDate=2018-10-18
10/18/2018 09:42:20: Error_ApiConexiones.Post: Error en el servidor remoto: (500) Error interno del servidor..
   en System.Net.HttpWebRequest.GetResponse()
   en GrupoGitLib.Model.DataAccess.ApiConexiones.Post[T](String url, Int32 timeOutCnx, String json, String token).
URL: http://localhost:81/api/Inventario/TripInventory
10/18/2018 12:40:44: Error_ApiConexiones.Put: Error en el servidor remoto: (500) Error interno del servidor..
   en System.Net.HttpWebRequest.GetResponse()
   en GrupoGitLib.Model.DataAccess.ApiConexiones.Put[T](String url, Int32 timeOutCnx, String json, String token).
URL: http://localhost:82/api/Log/5855
10/18/2018 13:11:10: Error_ApiConexiones.Get: Error en el servidor remoto: (500) Error interno del servidor..
   en System.Net.HttpWebRequest.GetResponse()
   en GrupoGitLib.Model.DataAccess.ApiConexiones.Get[T](String url, Int32 timeOutCnx, String token).
URL: http://localhost:82/api/Log?groupedByCedis=False&cedisId=97&routeId=494&deliveryDate=2018-10-18
10/18/2018 13:11:26: Error_ApiConexiones.Post: Error en el servidor remoto: (500) Error interno del servidor..
   en System.Net.HttpWebRequest.GetResponse()
   en GrupoGitLib.Model.DataAccess.ApiConexiones.Post[T](String url, Int32 timeOutCnx, String json, String token).
URL: http://localhost:81/api/Inventario/TripInventory
10/18/2018 13:11:41: Error_ApiConexiones.Post: Error en el servidor remoto: (500) Error interno del servidor..
   en System.Net.HttpWebRequest.GetResponse()
   en GrupoGitLib.Model.DataAccess.ApiConexiones.Post[T](String url, Int32 timeOutCnx, String json, String token).
URL: http://localhost:82/api/Log
10/18/2018 13:12:04: Error_ApiConexiones.Get: Error en el servidor remoto: (500) Error interno del servidor..
   en System.Net.HttpWebRequest.GetResponse()
   en GrupoGitLib.Model.DataAccess.ApiConexiones.Get[T](String url, Int32 timeOutCnx, String token).
URL: http://localhost:82/api/jornadasFinalizadas?cedisId=97&routeId=494&deliveryDate=2018-10-18
10/18/2018 13:14:32: Error_ApiConexiones.Get: Anulada la solicitud: Se excedió el tiempo de espera de la operación..
   en System.Net.HttpWebRequest.GetResponse()
   en GrupoGitLib.Model.DataAccess.ApiConexiones.Get[T](String url, Int32 timeOutCnx, String token).
URL: http://localhost:82/api/OrdenOpeCd/GetOrderCliente/970000011895
10/18/2018 13:19:29: Error_ApiConexiones.Get: Error en el servidor remoto: (500) Error interno del servidor..
   en System.Net.HttpWebRequest.GetResponse()
   en GrupoGitLib.Model.DataAccess.ApiConexiones.Get[T](String url, Int32 timeOutCnx, String token).
URL: http://localhost:81/api/PrecioClienteCoca?cedisId=97&barcode=260589&deliveryDate=2018-10-18T00:00:00
10/18/2018 13:19:38: Error_ApiConexiones.Get: Error en el servidor remoto: (500) Error interno del servidor..
   en System.Net.HttpWebRequest.GetResponse()
   en GrupoGitLib.Model.DataAccess.ApiConexiones.Get[T](String url, Int32 timeOutCnx, String token).
URL: http://localhost:81/api/PrecioClienteCoca?cedisId=97&barcode=260589&deliveryDate=2018-10-18T00:00:00
10/18/2018 13:19:52: Error_ApiConexiones.Get: Error en el servidor remoto: (500) Error interno del servidor..
   en System.Net.HttpWebRequest.GetResponse()
   en GrupoGitLib.Model.DataAccess.ApiConexiones.Get[T](String url, Int32 timeOutCnx, String token).
URL: http://localhost:81/api/PrecioClienteCoca?cedisId=97&barcode=260589&deliveryDate=2018-10-18T00:00:00
10/18/2018 13:20:22: Error_ApiConexiones.Get: Error en el servidor remoto: (500) Error interno del servidor..
   en System.Net.HttpWebRequest.GetResponse()
   en GrupoGitLib.Model.DataAccess.ApiConexiones.Get[T](String url, Int32 timeOutCnx, String token).
URL: http://localhost:81/api/PrecioClienteCoca?cedisId=97&barcode=260589&deliveryDate=2018-10-18T00:00:00
10/18/2018 13:20:30: Error_ApiConexiones.Get: Error en el servidor remoto: (500) Error interno del servidor..
   en System.Net.HttpWebRequest.GetResponse()
   en GrupoGitLib.Model.DataAccess.ApiConexiones.Get[T](String url, Int32 timeOutCnx, String token).
URL: http://localhost:81/api/PrecioClienteCoca?cedisId=97&barcode=260589&deliveryDate=2018-10-18T00:00:00
10/18/2018 13:20:36: Error_ApiConexiones.Get: Error en el servidor remoto: (500) Error interno del servidor..
   en System.Net.HttpWebRequest.GetResponse()
   en GrupoGitLib.Model.DataAccess.ApiConexiones.Get[T](String url, Int32 timeOutCnx, String token).
URL: http://localhost:81/api/PrecioClienteCoca?cedisId=97&barcode=260589&deliveryDate=2018-10-18T00:00:00
10/18/2018 13:21:03: Error_ApiConexiones.Get: Error en el servidor remoto: (500) Error interno del servidor..
   en System.Net.HttpWebRequest.GetResponse()
   en GrupoGitLib.Model.DataAccess.ApiConexiones.Get[T](String url, Int32 timeOutCnx, String token).
URL: http://localhost:81/api/PrecioClienteCoca?cedisId=97&barcode=260589&deliveryDate=2018-10-18T00:00:00
10/18/2018 13:21:12: Error_ApiConexiones.Get: Error en el servidor remoto: (500) Error interno del servidor..
   en System.Net.HttpWebRequest.GetResponse()
   en GrupoGitLib.Model.DataAccess.ApiConexiones.Get[T](String url, Int32 timeOutCnx, String token).
URL: http://localhost:81/api/PrecioClienteCoca?cedisId=97&barcode=260589&deliveryDate=2018-10-18T00:00:00
10/18/2018 17:07:30: Error_ApiConexiones.Post: Se excedió el tiempo de espera de la operación.
   en System.Net.HttpWebRequest.GetResponse()
   en GrupoGitLib.Model.DataAccess.ApiConexiones.Post[T](String url, Int32 timeOutCnx, String json, String token).
URL: http://localhost:81/api/Inventario/TripInventory
10/18/2018 17:07:31: Error_ApiConexiones.Post: Error en el servidor remoto: (500) Error interno del servidor..
   en System.Net.HttpWebRequest.GetResponse()
   en GrupoGitLib.Model.DataAccess.ApiConexiones.Post[T](String url, Int32 timeOutCnx, String json, String token).
URL: http://localhost:82/api/Log
10/18/2018 17:09:25: Error_ApiConexiones.Get: Error en el servidor remoto: (500) Error interno del servidor..
   en System.Net.HttpWebRequest.GetResponse()
   en GrupoGitLib.Model.DataAccess.ApiConexiones.Get[T](String url, Int32 timeOutCnx, String token).
URL: http://localhost:82/api/OrdenOpeCd/GetOrderCliente/970000011895
10/18/2018 17:17:16: Error_ApiConexiones.Post: Se excedió el tiempo de espera de la operación.
   en System.Net.HttpWebRequest.GetResponse()
   en GrupoGitLib.Model.DataAccess.ApiConexiones.Post[T](String url, Int32 timeOutCnx, String json, String token).
URL: http://localhost:81/api/Inventario/TripInventory
10/18/2018 17:17:17: Error_ApiConexiones.Post: Error en el servidor remoto: (500) Error interno del servidor..
   en System.Net.HttpWebRequest.GetResponse()
   en GrupoGitLib.Model.DataAccess.ApiConexiones.Post[T](String url, Int32 timeOutCnx, String json, String token).
URL: http://localhost:82/api/Log
10/18/2018 17:30:05: Error_ApiConexiones.Post: Se excedió el tiempo de espera de la operación.
   en System.Net.HttpWebRequest.GetResponse()
   en GrupoGitLib.Model.DataAccess.ApiConexiones.Post[T](String url, Int32 timeOutCnx, String json, String token).
URL: http://localhost:81/api/Inventario/TripInventory
10/18/2018 17:30:05: Error_ApiConexiones.Post: Error en el servidor remoto: (500) Error interno del servidor..
   en System.Net.HttpWebRequest.GetResponse()
   en GrupoGitLib.Model.DataAccess.ApiConexiones.Post[T](String url, Int32 timeOutCnx, String json, String token).
URL: http://localhost:82/api/Log
10/18/2018 17:32:35: Error_ApiConexiones.Post: Error en el servidor remoto: (400) Solicitud incorrecta..
   en System.Net.HttpWebRequest.GetResponse()
   en GrupoGitLib.Model.DataAccess.ApiConexiones.Post[T](String url, Int32 timeOutCnx, String json, String token).
URL: http://localhost:81/api/Sales?cedisId=97
10/18/2018 17:32:49: Error_ApiConexiones.Post: Error en el servidor remoto: (400) Solicitud incorrecta..
   en System.Net.HttpWebRequest.GetResponse()
   en GrupoGitLib.Model.DataAccess.ApiConexiones.Post[T](String url, Int32 timeOutCnx, String json, String token).
URL: http://localhost:81/api/Sales?cedisId=97
10/18/2018 17:33:41: Error_ApiConexiones.Post: Error en el servidor remoto: (400) Solicitud incorrecta..
   en System.Net.HttpWebRequest.GetResponse()
   en GrupoGitLib.Model.DataAccess.ApiConexiones.Post[T](String url, Int32 timeOutCnx, String json, String token).
URL: http://localhost:81/api/Sales?cedisId=97
10/18/2018 17:33:56: Error_ApiConexiones.Post: Error en el servidor remoto: (400) Solicitud incorrecta..
   en System.Net.HttpWebRequest.GetResponse()
   en GrupoGitLib.Model.DataAccess.ApiConexiones.Post[T](String url, Int32 timeOutCnx, String json, String token).
URL: http://localhost:81/api/Sales?cedisId=97
10/18/2018 17:54:56: Error_ApiConexiones.Post: Error en el servidor remoto: (500) Error interno del servidor..
   en System.Net.HttpWebRequest.GetResponse()
   en GrupoGitLib.Model.DataAccess.ApiConexiones.Post[T](String url, Int32 timeOutCnx, String json, String token).
URL: http://localhost:82/api/Log
