09/18/2018 16:44:45: Error_ApiConexiones.Get: Error en el servidor remoto: (404) No se encontró..
   en System.Net.HttpWebRequest.GetResponse()
   en GrupoGitLib.Model.DataAccess.ApiConexiones.Get[T](String url, Int32 timeOutCnx, String token).
URL: http://localhost:56382//api/Log?groupedByCedis=False&cedisId=97&routeId=519&deliveryDate=2018-09-18
09/18/2018 16:44:46: Error_ApiConexiones.Get: Error en el servidor remoto: (404) No se encontró..
   en System.Net.HttpWebRequest.GetResponse()
   en GrupoGitLib.Model.DataAccess.ApiConexiones.Get[T](String url, Int32 timeOutCnx, String token).
URL: http://localhost:56382//api/Log?groupedByCedis=False&cedisId=13&routeId=110&deliveryDate=2018-09-18
09/18/2018 16:44:47: Error_ApiConexiones.Get: Error en el servidor remoto: (404) No se encontró..
   en System.Net.HttpWebRequest.GetResponse()
   en GrupoGitLib.Model.DataAccess.ApiConexiones.Get[T](String url, Int32 timeOutCnx, String token).
URL: http://localhost:56382//api/Log?groupedByCedis=False&cedisId=13&routeId=112&deliveryDate=2018-09-18
09/18/2018 16:44:48: Error_ApiConexiones.Post: Error en el servidor remoto: (404) No se encontró..
   en System.Net.HttpWebRequest.GetResponse()
   en GrupoGitLib.Model.DataAccess.ApiConexiones.Post[T](String url, Int32 timeOutCnx, String json, String token).
URL: http://localhost:56382//api/Log
09/18/2018 16:44:48: Error_ApiConexiones.Post: Error en el servidor remoto: (404) No se encontró..
   en System.Net.HttpWebRequest.GetResponse()
   en GrupoGitLib.Model.DataAccess.ApiConexiones.Post[T](String url, Int32 timeOutCnx, String json, String token).
URL: http://localhost:56382//api/Log
09/18/2018 16:44:52: Error_ApiConexiones.Post: Error en el servidor remoto: (404) No se encontró..
   en System.Net.HttpWebRequest.GetResponse()
   en GrupoGitLib.Model.DataAccess.ApiConexiones.Post[T](String url, Int32 timeOutCnx, String json, String token).
URL: http://localhost:56382//api/Log
09/18/2018 16:44:52: Error_ApiConexiones.Post: Error en el servidor remoto: (404) No se encontró..
   en System.Net.HttpWebRequest.GetResponse()
   en GrupoGitLib.Model.DataAccess.ApiConexiones.Post[T](String url, Int32 timeOutCnx, String json, String token).
URL: http://localhost:56382//api/Log
09/18/2018 16:44:52: Error_ApiConexiones.Get: Error en el servidor remoto: (404) No se encontró..
   en System.Net.HttpWebRequest.GetResponse()
   en GrupoGitLib.Model.DataAccess.ApiConexiones.Get[T](String url, Int32 timeOutCnx, String token).
URL: http://localhost:56382/GET api/JornadasFinalizadas?cedisId={cedisId}&routeId={route}&deliveryDate={deliveryDate}
09/18/2018 16:44:52: Error_ApiConexiones.Post: Error en el servidor remoto: (404) No se encontró..
   en System.Net.HttpWebRequest.GetResponse()
   en GrupoGitLib.Model.DataAccess.ApiConexiones.Post[T](String url, Int32 timeOutCnx, String json, String token).
URL: http://localhost:56382//api/Log
09/18/2018 16:44:52: Error_ApiConexiones.Get: Error en el servidor remoto: (404) No se encontró..
   en System.Net.HttpWebRequest.GetResponse()
   en GrupoGitLib.Model.DataAccess.ApiConexiones.Get[T](String url, Int32 timeOutCnx, String token).
URL: http://localhost:56382/GET api/JornadasFinalizadas?cedisId={cedisId}&routeId={route}&deliveryDate={deliveryDate}
09/18/2018 16:44:52: Error_ApiConexiones.Post: Error en el servidor remoto: (404) No se encontró..
   en System.Net.HttpWebRequest.GetResponse()
   en GrupoGitLib.Model.DataAccess.ApiConexiones.Post[T](String url, Int32 timeOutCnx, String json, String token).
URL: http://localhost:56382//api/Log
09/18/2018 16:44:52: Error_ApiConexiones.Post: Error en el servidor remoto: (404) No se encontró..
   en System.Net.HttpWebRequest.GetResponse()
   en GrupoGitLib.Model.DataAccess.ApiConexiones.Post[T](String url, Int32 timeOutCnx, String json, String token).
URL: http://localhost:56382//api/Log
09/18/2018 16:44:52: Error_ApiConexiones.Post: Error en el servidor remoto: (404) No se encontró..
   en System.Net.HttpWebRequest.GetResponse()
   en GrupoGitLib.Model.DataAccess.ApiConexiones.Post[T](String url, Int32 timeOutCnx, String json, String token).
URL: http://localhost:56382//api/Log
09/18/2018 16:44:52: Error_ApiConexiones.Get: Error en el servidor remoto: (404) No se encontró..
   en System.Net.HttpWebRequest.GetResponse()
   en GrupoGitLib.Model.DataAccess.ApiConexiones.Get[T](String url, Int32 timeOutCnx, String token).
URL: http://localhost:56382/GET api/JornadasFinalizadas?cedisId={cedisId}&routeId={route}&deliveryDate={deliveryDate}
09/18/2018 16:44:53: Error_ApiConexiones.Post: Error en el servidor remoto: (404) No se encontró..
   en System.Net.HttpWebRequest.GetResponse()
   en GrupoGitLib.Model.DataAccess.ApiConexiones.Post[T](String url, Int32 timeOutCnx, String json, String token).
URL: http://localhost:56382//api/Log
09/18/2018 16:44:53: Error_ApiConexiones.Post: Error en el servidor remoto: (404) No se encontró..
   en System.Net.HttpWebRequest.GetResponse()
   en GrupoGitLib.Model.DataAccess.ApiConexiones.Post[T](String url, Int32 timeOutCnx, String json, String token).
URL: http://localhost:56382//api/Log
09/18/2018 16:44:53: Error_ApiConexiones.Post: Error en el servidor remoto: (404) No se encontró..
   en System.Net.HttpWebRequest.GetResponse()
   en GrupoGitLib.Model.DataAccess.ApiConexiones.Post[T](String url, Int32 timeOutCnx, String json, String token).
URL: http://localhost:56382//api/Log
09/18/2018 16:44:53: Error_ApiConexiones.Post: Error en el servidor remoto: (404) No se encontró..
   en System.Net.HttpWebRequest.GetResponse()
   en GrupoGitLib.Model.DataAccess.ApiConexiones.Post[T](String url, Int32 timeOutCnx, String json, String token).
URL: http://localhost:56382//api/Log
09/18/2018 16:44:53: Error_ApiConexiones.Get: Error en el servidor remoto: (404) No se encontró..
   en System.Net.HttpWebRequest.GetResponse()
   en GrupoGitLib.Model.DataAccess.ApiConexiones.Get[T](String url, Int32 timeOutCnx, String token).
URL: http://localhost:56382/GET api/JornadasFinalizadas?cedisId={cedisId}&routeId={route}&deliveryDate={deliveryDate}
09/18/2018 16:47:31: Error_ApiConexiones.Get: Error en el servidor remoto: (404) No se encontró..
   en System.Net.HttpWebRequest.GetResponse()
   en GrupoGitLib.Model.DataAccess.ApiConexiones.Get[T](String url, Int32 timeOutCnx, String token).
URL: http://localhost:56382//api/Log?groupedByCedis=False&cedisId=97&routeId=519&deliveryDate=2018-09-18
09/18/2018 16:47:31: Error_ApiConexiones.Get: Error en el servidor remoto: (404) No se encontró..
   en System.Net.HttpWebRequest.GetResponse()
   en GrupoGitLib.Model.DataAccess.ApiConexiones.Get[T](String url, Int32 timeOutCnx, String token).
URL: http://localhost:56382//api/Log?groupedByCedis=False&cedisId=97&routeId=450&deliveryDate=2018-09-18
09/18/2018 16:47:32: Error_ApiConexiones.Get: Error en el servidor remoto: (404) No se encontró..
   en System.Net.HttpWebRequest.GetResponse()
   en GrupoGitLib.Model.DataAccess.ApiConexiones.Get[T](String url, Int32 timeOutCnx, String token).
URL: http://localhost:56382//api/Log?groupedByCedis=False&cedisId=97&routeId=477&deliveryDate=2018-09-18
09/18/2018 16:47:34: Error_ApiConexiones.Get: Error en el servidor remoto: (404) No se encontró..
   en System.Net.HttpWebRequest.GetResponse()
   en GrupoGitLib.Model.DataAccess.ApiConexiones.Get[T](String url, Int32 timeOutCnx, String token).
URL: http://localhost:56382//api/Log?groupedByCedis=False&cedisId=13&routeId=110&deliveryDate=2018-09-18
09/18/2018 16:47:36: Error_ApiConexiones.Get: Error en el servidor remoto: (404) No se encontró..
   en System.Net.HttpWebRequest.GetResponse()
   en GrupoGitLib.Model.DataAccess.ApiConexiones.Get[T](String url, Int32 timeOutCnx, String token).
URL: http://localhost:56382//api/Log?groupedByCedis=False&cedisId=13&routeId=112&deliveryDate=2018-09-18
09/18/2018 16:48:51: Error_ApiConexiones.Get: Error en el servidor remoto: (404) No se encontró..
   en System.Net.HttpWebRequest.GetResponse()
   en GrupoGitLib.Model.DataAccess.ApiConexiones.Get[T](String url, Int32 timeOutCnx, String token).
URL: http://localhost:56382//api/Log?groupedByCedis=False&cedisId=97&routeId=470&deliveryDate=2018-09-18
09/18/2018 16:50:29: Error_ApiConexiones.Post: Error en el servidor remoto: (404) No se encontró..
   en System.Net.HttpWebRequest.GetResponse()
   en GrupoGitLib.Model.DataAccess.ApiConexiones.Post[T](String url, Int32 timeOutCnx, String json, String token).
URL: http://localhost:56382//api/Log
