05/28/2019 11:15:57: Error_ApiConexiones.Put: Error en el servidor remoto: (409) Conflicto..
   en System.Net.HttpWebRequest.GetResponse()
   en GrupoGitLib.Model.DataAccess.ApiConexiones.Put[T](String url, Int32 timeOutCnx, String json, String token).
URL: http://localhost:56382/api/OrdenOpeCd/PutOrder/1
