05/23/2019 17:53:51: Error_ApiConexiones.Post: Error en el servidor remoto: (500) Error interno del servidor..
   en System.Net.HttpWebRequest.GetResponse()
   en GrupoGitLib.Model.DataAccess.ApiConexiones.Post[T](String url, Int32 timeOutCnx, String json, String token).
URL: http://10.20.128.26:812//api/OrderGeneral?cedisId=97
05/23/2019 17:54:08: Error_ApiConexiones.Post: Error en el servidor remoto: (500) Error interno del servidor..
   en System.Net.HttpWebRequest.GetResponse()
   en GrupoGitLib.Model.DataAccess.ApiConexiones.Post[T](String url, Int32 timeOutCnx, String json, String token).
URL: http://10.20.128.26:812//api/OrderGeneral?cedisId=97
05/23/2019 17:57:07: Error_ApiConexiones.Get: Error en el servidor remoto: (500) Error interno del servidor..
   en System.Net.HttpWebRequest.GetResponse()
   en GrupoGitLib.Model.DataAccess.ApiConexiones.Get[T](String url, Int32 timeOutCnx, String token).
URL: http://pbasworkbycloudds.bepensa.com:83/IntegracionesAPI//api/OrdenOpeCd/GetOrders?Status=1&cedis=97&ruta=450
05/23/2019 17:58:22: Error_ApiConexiones.Get: Error en el servidor remoto: (500) Error interno del servidor..
   en System.Net.HttpWebRequest.GetResponse()
   en GrupoGitLib.Model.DataAccess.ApiConexiones.Get[T](String url, Int32 timeOutCnx, String token).
URL: http://pbasworkbycloudds.bepensa.com:83/IntegracionesAPI/api/OrdenOpeCd/GetOrders?Status=1&cedis=97&ruta=450
