10/11/2018 08:04:42: Error_ApiConexiones.Get: Error en el servidor remoto: (500) Error interno del servidor..
   en System.Net.HttpWebRequest.GetResponse()
   en GrupoGitLib.Model.DataAccess.ApiConexiones.Get[T](String url, Int32 timeOutCnx, String token).
URL: http://pbasworkbycloudds.bepensa.com:83/ClientesAPI/api/Customer?active=1&distributionCenterCode=97&routeCode=519&modifiedOn=2011-01-01T00:00:00
10/11/2018 10:10:34: Error_ApiConexiones.Post: Unexpected character encountered while parsing value: {. Path '', line 1, position 1..
   en Newtonsoft.Json.JsonTextReader.ReadAsBoolean()
   en Newtonsoft.Json.Serialization.JsonSerializerInternalReader.ReadForType(JsonReader reader, JsonContract contract, Boolean hasConverter)
   en Newtonsoft.Json.Serialization.JsonSerializerInternalReader.Deserialize(JsonReader reader, Type objectType, Boolean checkAdditionalContent)
   en Newtonsoft.Json.JsonSerializer.DeserializeInternal(JsonReader reader, Type objectType)
   en Newtonsoft.Json.JsonConvert.DeserializeObject(String value, Type type, JsonSerializerSettings settings)
   en Newtonsoft.Json.JsonConvert.DeserializeObject[T](String value, JsonSerializerSettings settings)
   en Newtonsoft.Json.JsonConvert.DeserializeObject[T](String value)
   en GrupoGitLib.Model.DataAccess.ApiConexiones.Post[T](String url, Int32 timeOutCnx, String json, String token).
URL: http://localhost:82/api/jornadasFinalizadas
