10/31/2018 15:22:32: Error_ApiConexiones.Post: Error en el servidor remoto: (500) Error interno del servidor..
   en System.Net.HttpWebRequest.GetResponse()
   en GrupoGitLib.Model.DataAccess.ApiConexiones.Post[T](String url, Int32 timeOutCnx, String json, String token).
URL: http://localhost:82/api/VentasWBC/IntegrationSales?cedisId=97
10/31/2018 17:35:16: Error_ApiConexiones.Post: Error en el servidor remoto: (409) Conflicto..
   en System.Net.HttpWebRequest.GetResponse()
   en GrupoGitLib.Model.DataAccess.ApiConexiones.Post[T](String url, Int32 timeOutCnx, String json, String token).
URL: http://192.168.1.71:82/api/jornadasFinalizadas
10/31/2018 17:44:50: Error_ApiConexiones.Post: Error en el servidor remoto: (409) Conflicto..
   en System.Net.HttpWebRequest.GetResponse()
   en GrupoGitLib.Model.DataAccess.ApiConexiones.Post[T](String url, Int32 timeOutCnx, String json, String token).
URL: http://192.168.1.71:82/api/jornadasFinalizadas
10/31/2018 17:46:41: Error_ApiConexiones.Post: Error en el servidor remoto: (409) Conflicto..
   en System.Net.HttpWebRequest.GetResponse()
   en GrupoGitLib.Model.DataAccess.ApiConexiones.Post[T](String url, Int32 timeOutCnx, String json, String token).
URL: http://192.168.1.71:82/api/jornadasFinalizadas
10/31/2018 18:10:59: Error_ApiConexiones.Post: Error en el servidor remoto: (500) Error interno del servidor..
   en System.Net.HttpWebRequest.GetResponse()
   en GrupoGitLib.Model.DataAccess.ApiConexiones.Post[T](String url, Int32 timeOutCnx, String json, String token).
URL: http://192.168.1.71:82/api/Log
10/31/2018 18:11:52: Error_ApiConexiones.Post: Error en el servidor remoto: (500) Error interno del servidor..
   en System.Net.HttpWebRequest.GetResponse()
   en GrupoGitLib.Model.DataAccess.ApiConexiones.Post[T](String url, Int32 timeOutCnx, String json, String token).
URL: http://192.168.1.71:82/api/Log
