10/18/2018 08:46:05: Error_ApiConexiones.Get: No es posible conectar con el servidor remoto.
   en System.Net.HttpWebRequest.GetResponse()
   en GrupoGitLib.Model.DataAccess.ApiConexiones.Get[T](String url, Int32 timeOutCnx, String token).
URL: http://192.168.22.22:81/api/OrdenWBC/GetOrders
10/18/2018 08:49:19: Error_ApiConexiones.Get: No es posible conectar con el servidor remoto.
   en System.Net.HttpWebRequest.GetResponse()
   en GrupoGitLib.Model.DataAccess.ApiConexiones.Get[T](String url, Int32 timeOutCnx, String token).
URL: http://192.168.22.22:81/api/OrdenWBC/GetOrders
10/18/2018 08:51:01: Error_ApiConexiones.Get: No es posible conectar con el servidor remoto.
   en System.Net.HttpWebRequest.GetResponse()
   en GrupoGitLib.Model.DataAccess.ApiConexiones.Get[T](String url, Int32 timeOutCnx, String token).
URL: http://192.168.20.74:82/api/OrdenWBC/GetOrders
10/18/2018 08:52:31: Error_ApiConexiones.Get: No es posible conectar con el servidor remoto.
   en System.Net.HttpWebRequest.GetResponse()
   en GrupoGitLib.Model.DataAccess.ApiConexiones.Get[T](String url, Int32 timeOutCnx, String token).
URL: http://192.168.20.74:82/api/OrdenWBC/GetOrders
10/18/2018 09:43:51: Error_ApiConexiones.Post: Error en el servidor remoto: (500) Error interno del servidor..
   en System.Net.HttpWebRequest.GetResponse()
   en GrupoGitLib.Model.DataAccess.ApiConexiones.Post[T](String url, Int32 timeOutCnx, String json, String token).
URL: http://localhost:82/api/Log
10/18/2018 09:54:00: Error_ApiConexiones.Put: Error en el servidor remoto: (500) Error interno del servidor..
   en System.Net.HttpWebRequest.GetResponse()
   en GrupoGitLib.Model.DataAccess.ApiConexiones.Put[T](String url, Int32 timeOutCnx, String json, String token).
URL: http://localhost:82/api/Log/5855
10/18/2018 09:59:18: Error_ApiConexiones.Get: Error en el servidor remoto: (500) Error interno del servidor..
   en System.Net.HttpWebRequest.GetResponse()
   en GrupoGitLib.Model.DataAccess.ApiConexiones.Get[T](String url, Int32 timeOutCnx, String token).
URL: http://localhost:82/api/OrdenWBC/GetOrders
10/18/2018 10:00:17: Error_ApiConexiones.Get: Error en el servidor remoto: (500) Error interno del servidor..
   en System.Net.HttpWebRequest.GetResponse()
   en GrupoGitLib.Model.DataAccess.ApiConexiones.Get[T](String url, Int32 timeOutCnx, String token).
URL: http://localhost:82/api/OrdenWBC/GetOrders
10/18/2018 10:00:46: Error_ApiConexiones.Get: Error en el servidor remoto: (500) Error interno del servidor..
   en System.Net.HttpWebRequest.GetResponse()
   en GrupoGitLib.Model.DataAccess.ApiConexiones.Get[T](String url, Int32 timeOutCnx, String token).
URL: http://localhost:82/api/OrdenWBC/GetOrders
10/18/2018 10:01:22: Error_ApiConexiones.Get: Error en el servidor remoto: (500) Error interno del servidor..
   en System.Net.HttpWebRequest.GetResponse()
   en GrupoGitLib.Model.DataAccess.ApiConexiones.Get[T](String url, Int32 timeOutCnx, String token).
URL: http://localhost:82/api/OrdenWBC/GetOrders
10/18/2018 10:17:26: Error_ApiConexiones.Get: Error en el servidor remoto: (500) Error interno del servidor..
   en System.Net.HttpWebRequest.GetResponse()
   en GrupoGitLib.Model.DataAccess.ApiConexiones.Get[T](String url, Int32 timeOutCnx, String token).
URL: http://localhost:82/api/Log?groupedByCedis=False&cedisId=97&routeId=494&deliveryDate=2018-10-18
10/18/2018 10:18:28: Error_ApiConexiones.Get: Error en el servidor remoto: (500) Error interno del servidor..
   en System.Net.HttpWebRequest.GetResponse()
   en GrupoGitLib.Model.DataAccess.ApiConexiones.Get[T](String url, Int32 timeOutCnx, String token).
URL: http://localhost:82/api/Log?groupedByCedis=False&cedisId=97&routeId=494&deliveryDate=2018-10-18
10/18/2018 10:19:10: Error_ApiConexiones.Get: Error en el servidor remoto: (500) Error interno del servidor..
   en System.Net.HttpWebRequest.GetResponse()
   en GrupoGitLib.Model.DataAccess.ApiConexiones.Get[T](String url, Int32 timeOutCnx, String token).
URL: http://localhost:82/api/Log?groupedByCedis=False&cedisId=97&routeId=494&deliveryDate=2018-10-18
10/18/2018 10:20:10: Error_ApiConexiones.Get: Error en el servidor remoto: (500) Error interno del servidor..
   en System.Net.HttpWebRequest.GetResponse()
   en GrupoGitLib.Model.DataAccess.ApiConexiones.Get[T](String url, Int32 timeOutCnx, String token).
URL: http://localhost:82/api/Log?groupedByCedis=False&cedisId=97&routeId=494&deliveryDate=2018-10-18
10/18/2018 10:25:13: Error_ApiConexiones.Post: Error en el servidor remoto: (500) Error interno del servidor..
   en System.Net.HttpWebRequest.GetResponse()
   en GrupoGitLib.Model.DataAccess.ApiConexiones.Post[T](String url, Int32 timeOutCnx, String json, String token).
URL: http://pbasqaworkbycloudds.bepensa.com:83/PriceLists/
10/18/2018 10:26:05: Error_ApiConexiones.Get: Error en el servidor remoto: (404) No se encontró..
   en System.Net.HttpWebRequest.GetResponse()
   en GrupoGitLib.Model.DataAccess.ApiConexiones.Get[T](String url, Int32 timeOutCnx, String token).
URL: http://pbasqaworkbycloudds.bepensa.com:83/api/PrecioClienteCoca?cedisId=97&barcode=970000011895&deliveryDate=2018-10-18
10/18/2018 11:39:11: Error_ApiConexiones.Post: Error en el servidor remoto: (500) Error interno del servidor..
   en System.Net.HttpWebRequest.GetResponse()
   en GrupoGitLib.Model.DataAccess.ApiConexiones.Post[T](String url, Int32 timeOutCnx, String json, String token).
URL: http://localhost:82/api/VentasWBC/IntegrationSales?cedisId=97
10/18/2018 11:41:17: Error_ApiConexiones.Post: Error en el servidor remoto: (500) Error interno del servidor..
   en System.Net.HttpWebRequest.GetResponse()
   en GrupoGitLib.Model.DataAccess.ApiConexiones.Post[T](String url, Int32 timeOutCnx, String json, String token).
URL: http://localhost:82/api/VentasWBC/IntegrationSales?cedisId=97
10/18/2018 12:10:53: Error_ApiConexiones.Post: Error en el servidor remoto: (500) Error interno del servidor..
   en System.Net.HttpWebRequest.GetResponse()
   en GrupoGitLib.Model.DataAccess.ApiConexiones.Post[T](String url, Int32 timeOutCnx, String json, String token).
URL: http://localhost:82/api/VentasWBC/IntegrationSales?cedisId=97
10/18/2018 12:12:22: Error_ApiConexiones.Get: Error en el servidor remoto: (500) Error interno del servidor..
   en System.Net.HttpWebRequest.GetResponse()
   en GrupoGitLib.Model.DataAccess.ApiConexiones.Get[T](String url, Int32 timeOutCnx, String token).
URL: http://localhost:82/api/Log?groupedByCedis=False&cedisId=97&routeId=494&trip=1&deliveryDate=2018-10-18
10/18/2018 12:13:39: Error_ApiConexiones.Post: Error en el servidor remoto: (500) Error interno del servidor..
   en System.Net.HttpWebRequest.GetResponse()
   en GrupoGitLib.Model.DataAccess.ApiConexiones.Post[T](String url, Int32 timeOutCnx, String json, String token).
URL: http://localhost:82/api/VentasWBC/IntegrationSales?cedisId=97
10/18/2018 12:18:00: Error_ApiConexiones.Post: Error en el servidor remoto: (500) Error interno del servidor..
   en System.Net.HttpWebRequest.GetResponse()
   en GrupoGitLib.Model.DataAccess.ApiConexiones.Post[T](String url, Int32 timeOutCnx, String json, String token).
URL: http://localhost:82/api/VentasWBC/IntegrationSales?cedisId=97
10/18/2018 12:18:40: Error_ApiConexiones.Post: Error en el servidor remoto: (500) Error interno del servidor..
   en System.Net.HttpWebRequest.GetResponse()
   en GrupoGitLib.Model.DataAccess.ApiConexiones.Post[T](String url, Int32 timeOutCnx, String json, String token).
URL: http://localhost:82/api/VentasWBC/IntegrationSales?cedisId=97
10/18/2018 12:26:08: Error_ApiConexiones.Post: Error en el servidor remoto: (500) Error interno del servidor..
   en System.Net.HttpWebRequest.GetResponse()
   en GrupoGitLib.Model.DataAccess.ApiConexiones.Post[T](String url, Int32 timeOutCnx, String json, String token).
URL: http://localhost:82/api/VentasWBC/IntegrationSales?cedisId=97
10/18/2018 12:26:25: Error_ApiConexiones.Post: Error en el servidor remoto: (500) Error interno del servidor..
   en System.Net.HttpWebRequest.GetResponse()
   en GrupoGitLib.Model.DataAccess.ApiConexiones.Post[T](String url, Int32 timeOutCnx, String json, String token).
URL: http://localhost:82/api/VentasWBC/IntegrationSales?cedisId=97
10/18/2018 12:28:24: Error_ApiConexiones.Get: Error en el servidor remoto: (500) Error interno del servidor..
   en System.Net.HttpWebRequest.GetResponse()
   en GrupoGitLib.Model.DataAccess.ApiConexiones.Get[T](String url, Int32 timeOutCnx, String token).
URL: http://localhost:82/api/Log?groupedByCedis=False&cedisId=97&routeId=494&trip=1&deliveryDate=2018-10-18
10/18/2018 12:28:52: Error_ApiConexiones.Get: Error en el servidor remoto: (500) Error interno del servidor..
   en System.Net.HttpWebRequest.GetResponse()
   en GrupoGitLib.Model.DataAccess.ApiConexiones.Get[T](String url, Int32 timeOutCnx, String token).
URL: http://localhost:82/api/Log?groupedByCedis=False&cedisId=97&routeId=494&trip=1&deliveryDate=2018-10-18
10/18/2018 12:33:35: Error_ApiConexiones.Get: Error en el servidor remoto: (500) Error interno del servidor..
   en System.Net.HttpWebRequest.GetResponse()
   en GrupoGitLib.Model.DataAccess.ApiConexiones.Get[T](String url, Int32 timeOutCnx, String token).
URL: http://localhost:82/api/Log?groupedByCedis=False&cedisId=97&routeId=494&trip=1&deliveryDate=2018-10-18
