11/07/2018 10:17:29: Error_ApiConexiones.Get: No es posible conectar con el servidor remoto.
   en System.Net.HttpWebRequest.GetResponse()
   en GrupoGitLib.Model.DataAccess.ApiConexiones.Get[T](String url, Int32 timeOutCnx, String token).
URL: http://pbasworkbycloudds.bepensa.com:83/IntegracionesAPI/api/jornadasFinalizadas?cedisId=97&routeId=470&deliveryDate=2018-11-07
11/07/2018 10:19:18: Error_ApiConexiones.Get: Error en el servidor remoto: (404) No se encontró..
   en System.Net.HttpWebRequest.GetResponse()
   en GrupoGitLib.Model.DataAccess.ApiConexiones.Get[T](String url, Int32 timeOutCnx, String token).
URL: http://pbasqaworkbycloudds.bepensa.com:83/PriceLists/7508/Products/
11/07/2018 10:19:45: Error_ApiConexiones.Get: Error en el servidor remoto: (404) No se encontró..
   en System.Net.HttpWebRequest.GetResponse()
   en GrupoGitLib.Model.DataAccess.ApiConexiones.Get[T](String url, Int32 timeOutCnx, String token).
URL: http://pbasqaworkbycloudds.bepensa.com:83/PriceLists/7508/Products/
11/07/2018 10:20:11: Error_ApiConexiones.Get: Error en el servidor remoto: (404) No se encontró..
   en System.Net.HttpWebRequest.GetResponse()
   en GrupoGitLib.Model.DataAccess.ApiConexiones.Get[T](String url, Int32 timeOutCnx, String token).
URL: http://pbasqaworkbycloudds.bepensa.com:83/PriceLists/7508/Products/
11/07/2018 10:21:12: Error_ApiConexiones.Get: Error en el servidor remoto: (404) No se encontró..
   en System.Net.HttpWebRequest.GetResponse()
   en GrupoGitLib.Model.DataAccess.ApiConexiones.Get[T](String url, Int32 timeOutCnx, String token).
URL: http://pbasqaworkbycloudds.bepensa.com:83/PriceLists/7508/Products/
11/07/2018 10:23:36: Error_ApiConexiones.Get: Error en el servidor remoto: (404) No se encontró..
   en System.Net.HttpWebRequest.GetResponse()
   en GrupoGitLib.Model.DataAccess.ApiConexiones.Get[T](String url, Int32 timeOutCnx, String token).
URL: http://pbasqaworkbycloudds.bepensa.com:83/PriceLists/7508/Products/
11/07/2018 10:25:12: Error_ApiConexiones.Post: Error en el servidor remoto: (404) No se encontró..
   en System.Net.HttpWebRequest.GetResponse()
   en GrupoGitLib.Model.DataAccess.ApiConexiones.Post[T](String url, Int32 timeOutCnx, String json, String token).
URL: http://pbasqaworkbycloudds.bepensa.com:83/Deliveries
11/07/2018 10:26:11: Error_ApiConexiones.Post: Error en el servidor remoto: (404) No se encontró..
   en System.Net.HttpWebRequest.GetResponse()
   en GrupoGitLib.Model.DataAccess.ApiConexiones.Post[T](String url, Int32 timeOutCnx, String json, String token).
URL: http://pbasqaworkbycloudds.bepensa.com:83/Deliveries
11/07/2018 10:34:41: Error_ApiConexiones.Get: No es posible conectar con el servidor remoto.
   en System.Net.HttpWebRequest.GetResponse()
   en GrupoGitLib.Model.DataAccess.ApiConexiones.Get[T](String url, Int32 timeOutCnx, String token).
URL: http://pbasqaworkbycloudds.bepensa.com:83/Customers?code=64817623456
