01/10/2019 12:54:56: Error_ApiConexiones.Get: Error en el servidor remoto: (401) No autorizado..
   en System.Net.HttpWebRequest.GetResponse()
   en GrupoGitLib.Model.DataAccess.ApiConexiones.Get[T](String url, Int32 timeOutCnx, String token).
URL: http://10.20.252.156:8018/Customers?code=970005000000
01/10/2019 12:55:56: Error_ApiConexiones.Get: Error en el servidor remoto: (401) No autorizado..
   en System.Net.HttpWebRequest.GetResponse()
   en GrupoGitLib.Model.DataAccess.ApiConexiones.Get[T](String url, Int32 timeOutCnx, String token).
URL: http://10.20.252.156:8018//Customers?code=970005000000
