02/19/2019 11:10:53: Error_ApiConexiones.Post: No es posible conectar con el servidor remoto.
   en System.Net.HttpWebRequest.GetRequestStream(TransportContext& context)
   en System.Net.HttpWebRequest.GetRequestStream()
   en GrupoGitLib.Model.DataAccess.ApiConexiones.Post[T](String url, Int32 timeOutCnx, String json, String token).
URL: http://10.20.252.156:8018/Token
