10/04/2018 16:32:16: Error_ApiConexiones.Post: Error en el servidor remoto: (404) No se encontró..
   en System.Net.HttpWebRequest.GetResponse()
   en GrupoGitLib.Model.DataAccess.ApiConexiones.Post[T](String url, Int32 timeOutCnx, String json, String token).
URL: http://192.168.20.49:82/api/closedJourneys
