06/13/2019 17:04:02: Error_ApiConexiones.Put: Error en el servidor remoto: (409) Conflicto..
   en System.Net.HttpWebRequest.GetResponse()
   en GrupoGitLib.Model.DataAccess.ApiConexiones.Put[T](String url, Int32 timeOutCnx, String json, String token).
URL: http://10.20.252.34:8094//Inventories/248608/confirm
