01/17/2019 10:37:38: Error_ApiConexiones.Post: Error en el servidor remoto: (500) Error interno del servidor..
   en System.Net.HttpWebRequest.GetResponse()
   en GrupoGitLib.Model.DataAccess.ApiConexiones.Post[T](String url, Int32 timeOutCnx, String json, String token).
URL: http://pbasworkbycloudds.bepensa.com:83/IntegracionesAPI/api/Log
