06/14/2019 00:25:34: Error_ApiConexiones.Post: Error en el servidor remoto: (500) Error interno del servidor..
   en System.Net.HttpWebRequest.GetResponse()
   en GrupoGitLib.Model.DataAccess.ApiConexiones.Post[T](String url, Int32 timeOutCnx, String json, String token).
URL: http://pbasworkbycloudds.bepensa.com:83/IntegracionesAPI/api/Log
06/14/2019 00:35:21: Error_ApiConexiones.Post: Error en el servidor remoto: (500) Error interno del servidor..
   en System.Net.HttpWebRequest.GetResponse()
   en GrupoGitLib.Model.DataAccess.ApiConexiones.Post[T](String url, Int32 timeOutCnx, String json, String token).
URL: http://pbasworkbycloudds.bepensa.com:83/IntegracionesAPI/api/Log
